metadata.client_urn,metadata.hostname,metadata.os,metadata.client_age,metadata.uname,metadata.os_release,metadata.os_version,metadata.usernames,metadata.mac_address,metadata.timestamp,metadata.original_timestamp,metadata.deprecated_session_id,metadata.labels,metadata.system_labels,metadata.user_labels,metadata.source_urn,metadata.annotations,metadata.hardware_info.serial_number,metadata.hardware_info.system_manufacturer,metadata.hardware_info.system_product_name,metadata.hardware_info.system_uuid,metadata.hardware_info.system_sku_number,metadata.hardware_info.system_family,metadata.hardware_info.bios_vendor,metadata.hardware_info.bios_version,metadata.hardware_info.bios_release_date,metadata.hardware_info.bios_rom_size,metadata.hardware_info.bios_revision,metadata.hardware_info.system_assettag,metadata.kernel_version,name,packageName,versionName,versionCode,minSdkVersion,targetSdkVersion,category,isEnabled,uid,sharedUserId,firstInstallTime,lastUpdateTime,installLocation,sourceDir,dataDir
aff4:/C.877c69c01bceb8ef,,,None,,,,,,2022-12-27 23:30:37,None,None,,,,aff4:/hunts/H:D350C1F9,,,,,,,,,,,,,,,OemDmTrigger,com.google.omadm.trigger,1.0,1,26,26,UNDEFINED,0,1001,android.uid.phone,2009-01-01 08:00:00,2009-01-01 08:00:00,UNSPECIFIED,/system/priv-app/OemDmTrigger/OemDmTrigger.apk,/data/user/0/com.google.omadm.trigger
aff4:/C.877c69c01bceb8ef,,,None,,,,,,2022-12-27 23:30:37,None,None,,,,aff4:/hunts/H:D350C1F9,,,,,,,,,,,,,,,Carrier Setup,com.google.android.carriersetup,9,28,28,28,UNDEFINED,1,10036,,2009-01-01 08:00:00,2009-01-01 08:00:00,UNSPECIFIED,/system/priv-app/CarrierSetup/CarrierSetup.apk,/data/user/0/com.google.android.carriersetup
aff4:/C.877c69c01bceb8ef,,,None,,,,,,2022-12-27 23:30:37,None,None,,,,aff4:/hunts/H:D350C1F9,,,,,,,,,,,,,,,com.android.cts.priv.ctsshim,com.android.cts.priv.ctsshim,8.1.0-4396705,27,24,24,UNDEFINED,1,10072,,2009-01-01 08:00:00,2009-01-01 08:00:00,UNSPECIFIED,/system/priv-app/CtsShimPrivPrebuilt/CtsShimPrivPrebuilt.apk,/data/user/0/com.android.cts.priv.ctsshim
aff4:/C.877c69c01bceb8ef,,,None,,,,,,2022-12-27 23:30:37,None,None,,,,aff4:/hunts/H:D350C1F9,,,,,,,,,,,,,,,YouTube,com.google.android.youtube,17.46.37,1532882368,26,33,VIDEO,1,10098,,2009-01-01 08:00:00,2022-11-30 21:52:15,UNSPECIFIED,/data/app/com.google.android.youtube-TD2wh0sEuQgKXwJS393_Tw==/base.apk,/data/user/0/com.google.android.youtube
aff4:/C.877c69c01bceb8ef,,,None,,,,,,2022-12-27 23:30:37,None,None,,,,aff4:/hunts/H:D350C1F9,,,,,,,,,,,,,,,My Module,com.vzw.apnlib,13.0,14,9,23,UNDEFINED,0,10107,,2009-01-01 08:00:00,2009-01-01 08:00:00,UNSPECIFIED,/system/app/VZWAPNLib/VZWAPNLib.apk,/data/user/0/com.vzw.apnlib
aff4:/C.877c69c01bceb8ef,,,None,,,,,,2022-12-27 23:30:37,None,None,,,,aff4:/hunts/H:D350C1F9,,,,,,,,,,,,,,,Corner cutout,com.android.internal.display.cutout.emulation.corner,1.0,1,28,28,UNDEFINED,1,10002,,2009-01-01 08:00:00,2009-01-01 08:00:00,UNSPECIFIED,/vendor/overlay/DisplayCutoutEmulationCorner/DisplayCutoutEmulationCornerOverlay.apk,/data/user/0/com.android.internal.display.cutout.emulation.corner
aff4:/C.877c69c01bceb8ef,,,None,,,,,,2022-12-27 23:30:37,None,None,,,,aff4:/hunts/H:D350C1F9,,,,,,,,,,,,,,,Android Services Library,com.google.android.ext.services,1,1,28,28,UNDEFINED,1,10040,,2009-01-01 08:00:00,2009-01-01 08:00:00,UNSPECIFIED,/system/priv-app/GoogleExtServices/GoogleExtServices.apk,/data/user_de/0/com.google.android.ext.services
aff4:/C.877c69c01bceb8ef,,,None,,,,,,2022-12-27 23:30:37,None,None,,,,aff4:/hunts/H:D350C1F9,,,,,,,,,,,,,,,Double cutout,com.android.internal.display.cutout.emulation.double,1.0,1,28,28,UNDEFINED,1,10004,,2009-01-01 08:00:00,2009-01-01 08:00:00,UNSPECIFIED,/vendor/overlay/DisplayCutoutEmulationDouble/DisplayCutoutEmulationDoubleOverlay.apk,/data/user/0/com.android.internal.display.cutout.emulation.double
aff4:/C.877c69c01bceb8ef,,,None,,,,,,2022-12-27 23:30:37,None,None,,,,aff4:/hunts/H:D350C1F9,,,,,,,,,,,,,,,Phone and Messaging Storage,com.android.providers.telephony,9,28,28,28,UNDEFINED,1,1001,android.uid.phone,2009-01-01 08:00:00,2009-01-01 08:00:00,UNSPECIFIED,/system/priv-app/TelephonyProvider/TelephonyProvider.apk,/data/user_de/0/com.android.providers.telephony
aff4:/C.877c69c01bceb8ef,,,None,,,,,,2022-12-27 23:30:37,None,None,,,,aff4:/hunts/H:D350C1F9,,,,,,,,,,,,,,,ConnMO,com.android.sdm.plugins.connmo,1.0,1,28,28,UNDEFINED,0,1001,android.uid.phone,2009-01-01 08:00:00,2009-01-01 08:00:00,UNSPECIFIED,/system/priv-app/ConnMO/ConnMO.apk,/data/user/0/com.android.sdm.plugins.connmo
aff4:/C.877c69c01bceb8ef,,,None,,,,,,2022-12-27 23:30:37,None,None,,,,aff4:/hunts/H:D350C1F9,,,,,,,,,,,,,,,Google,com.google.android.googlequicksearchbox,13.46.13.26.arm64,301218497,26,33,PRODUCTIVITY,1,10026,,2009-01-01 08:00:00,2022-12-01 18:28:57,UNSPECIFIED,/data/app/com.google.android.googlequicksearchbox-_5W37K96bRa6xWAGLHtW9w==/base.apk,/data/user/0/com.google.android.googlequicksearchbox
aff4:/C.877c69c01bceb8ef,,,None,,,,,,2022-12-27 23:30:37,None,None,,,,aff4:/hunts/H:D350C1F9,,,,,,,,,,,,,,,Calendar Storage,com.android.providers.calendar,9,28,28,28,UNDEFINED,1,10045,android.uid.calendar,2009-01-01 08:00:00,2009-01-01 08:00:00,UNSPECIFIED,/system/priv-app/CalendarProvider/CalendarProvider.apk,/data/user/0/com.android.providers.calendar
aff4:/C.877c69c01bceb8ef,,,None,,,,,,2022-12-27 23:30:37,None,None,,,,aff4:/hunts/H:D350C1F9,,,,,,,,,,,,,,,Media Storage,com.android.providers.media,9,900,28,28,UNDEFINED,1,10028,android.media,2009-01-01 08:00:00,2009-01-01 08:00:00,UNSPECIFIED,/system/priv-app/MediaProvider/MediaProvider.apk,/data/user/0/com.android.providers.media
aff4:/C.877c69c01bceb8ef,,,None,,,,,,2022-12-27 23:30:37,None,None,,,,aff4:/hunts/H:D350C1F9,,,,,,,,,,,,,,,Google One Time Init,com.google.android.onetimeinitializer,9,28,28,28,UNDEFINED,1,10012,,2009-01-01 08:00:00,2009-01-01 08:00:00,UNSPECIFIED,/system/priv-app/GoogleOneTimeInitializer/GoogleOneTimeInitializer.apk,/data/user/0/com.google.android.onetimeinitializer
aff4:/C.877c69c01bceb8ef,,,None,,,,,,2022-12-27 23:30:37,None,None,,,,aff4:/hunts/H:D350C1F9,,,,,,,,,,,,,,,Android Shared Library,com.google.android.ext.shared,1,1,28,28,UNDEFINED,1,10131,,2009-01-01 08:00:00,2009-01-01 08:00:00,UNSPECIFIED,/system/app/GoogleExtShared/GoogleExtShared.apk,/data/user_de/0/com.google.android.ext.shared
aff4:/C.877c69c01bceb8ef,,,None,,,,,,2022-12-27 23:30:37,None,None,,,,aff4:/hunts/H:D350C1F9,,,,,,,,,,,,,,,VZW_Multicast_MW,com.qualcomm.ltebc_vzw,MSDC_LA_4.2.01.11.0,42010110,19,26,UNDEFINED,0,10099,,2009-01-01 08:00:00,2009-01-01 08:00:00,UNSPECIFIED,/system/app/QAS_DVC_MSP_VZW/QAS_DVC_MSP_VZW.apk,/data/user/0/com.qualcomm.ltebc_vzw
aff4:/C.877c69c01bceb8ef,,,None,,,,,,2022-12-27 23:30:37,None,None,,,,aff4:/hunts/H:D350C1F9,,,,,,,,,,,,,,,com.quicinc.cne.CNEService.CNEServiceApp,com.quicinc.cne.CNEService,1.1,1,24,25,UNDEFINED,1,1001,android.uid.phone,2009-01-01 08:00:00,2009-01-01 08:00:00,UNSPECIFIED,/system/priv-app/CNEService/CNEService.apk,/data/user_de/0/com.quicinc.cne.CNEService
aff4:/C.877c69c01bceb8ef,,,None,,,,,,2022-12-27 23:30:37,None,None,,,,aff4:/hunts/H:D350C1F9,,,,,,,,,,,,,,,DiagnosticsTool,com.google.android.apps.diagnosticstool,1.0 (5430410),10001720,28,28,UNDEFINED,1,10116,,2009-01-01 08:00:00,2009-01-01 08:00:00,UNSPECIFIED,/system/app/DiagnosticsToolPrebuilt/DiagnosticsToolPrebuilt.apk,/data/user/0/com.google.android.apps.diagnosticstool
aff4:/C.877c69c01bceb8ef,,,None,,,,,,2022-12-27 23:30:37,None,None,,,,aff4:/hunts/H:D350C1F9,,,,,,,,,,,,,,,ReLF,org.nexus_lab.relf.mobile,1.0,1,21,28,UNDEFINED,1,10147,,2022-12-27 23:01:22,2022-12-27 23:01:22,UNSPECIFIED,/data/app/org.nexus_lab.relf.mobile-R_NPLRJIe2NQaBgz2yCugQ==/base.apk,/data/user/0/org.nexus_lab.relf.mobile
aff4:/C.877c69c01bceb8ef,,,None,,,,,,2022-12-27 23:30:37,None,None,,,,aff4:/hunts/H:D350C1F9,,,,,,,,,,,,,,,com.qualcomm.qti.smcinvokepkgmgr,com.qualcomm.qti.smcinvokepkgmgr,1.0,1,28,28,UNDEFINED,1,1000,android.uid.system,2009-01-01 08:00:00,2009-01-01 08:00:00,UNSPECIFIED,/system/app/smcinvokepkgmgr/smcinvokepkgmgr.apk,/data/user/0/com.qualcomm.qti.smcinvokepkgmgr
aff4:/C.877c69c01bceb8ef,,,None,,,,,,2022-12-27 23:30:37,None,None,,,,aff4:/hunts/H:D350C1F9,,,,,,,,,,,,,,,Files,com.android.documentsui,9,28,28,28,UNDEFINED,1,10029,,2009-01-01 08:00:00,2009-01-01 08:00:00,UNSPECIFIED,/system/priv-app/DocumentsUI/DocumentsUI.apk,/data/user/0/com.android.documentsui
aff4:/C.877c69c01bceb8ef,,,None,,,,,,2022-12-27 23:30:37,None,None,,,,aff4:/hunts/H:D350C1F9,,,,,,,,,,,,,,,android.auto_generated_rro__,android.auto_generated_rro__,1.0,1,28,28,UNDEFINED,1,10000,,2009-01-01 08:00:00,2009-01-01 08:00:00,UNSPECIFIED,/vendor/overlay/framework-res__auto_generated_rro.apk,/data/user/0/android.auto_generated_rro__
aff4:/C.877c69c01bceb8ef,,,None,,,,,,2022-12-27 23:30:37,None,None,,,,aff4:/hunts/H:D350C1F9,,,,,,,,,,,,,,,External Storage,com.android.externalstorage,9,28,28,28,UNDEFINED,1,10052,,2009-01-01 08:00:00,2009-01-01 08:00:00,UNSPECIFIED,/system/priv-app/ExternalStorageProvider/ExternalStorageProvider.apk,/data/user/0/com.android.externalstorage
aff4:/C.877c69c01bceb8ef,,,None,,,,,,2022-12-27 23:30:37,None,None,,,,aff4:/hunts/H:D350C1F9,,,,,,,,,,,,,,,Device Policy,com.google.android.apps.enterprise.dmagent,7.63,763,14,26,UNDEFINED,0,10087,,2009-01-01 08:00:00,2009-01-01 08:00:00,INTERNAL_ONLY,/system/app/DMAgent/DMAgent.apk,/data/user/0/com.google.android.apps.enterprise.dmagent
aff4:/C.877c69c01bceb8ef,,,None,,,,,,2022-12-27 23:30:37,None,None,,,,aff4:/hunts/H:D350C1F9,,,,,,,,,,,,,,,HTML Viewer,com.android.htmlviewer,9,28,23,23,UNDEFINED,1,10101,,2009-01-01 08:00:00,2009-01-01 08:00:00,UNSPECIFIED,/system/app/HTMLViewer/HTMLViewer.apk,/data/user/0/com.android.htmlviewer
aff4:/C.877c69c01bceb8ef,,,None,,,,,,2022-12-27 23:30:37,None,None,,,,aff4:/hunts/H:D350C1F9,,,,,,,,,,,,,,,Better Together,com.google.android.apps.multidevice.client,1.0.1977718181,1977718181,23,25,UNDEFINED,1,10103,,2009-01-01 08:00:00,2009-01-01 08:00:00,UNSPECIFIED,/system/app/SMSConnectPrebuilt/SMSConnectPrebuilt.apk,/data/user/0/com.google.android.apps.multidevice.client
aff4:/C.877c69c01bceb8ef,,,None,,,,,,2022-12-27 23:30:37,None,None,,,,aff4:/hunts/H:D350C1F9,,,,,,,,,,,,,,,uceShimService,com.qualcomm.qti.uceShimService,9,28,28,28,UNDEFINED,1,1001,android.uid.phone,2009-01-01 08:00:00,2009-01-01 08:00:00,UNSPECIFIED,/system/app/uceShimService/uceShimService.apk,/data/user_de/0/com.qualcomm.qti.uceShimService
aff4:/C.877c69c01bceb8ef,,,None,,,,,,2022-12-27 23:30:37,None,None,,,,aff4:/hunts/H:D350C1F9,,,,,,,,,,,,,,,Companion Device Manager,com.android.companiondevicemanager,9,28,28,28,UNDEFINED,1,10092,,2009-01-01 08:00:00,2009-01-01 08:00:00,UNSPECIFIED,/system/app/CompanionDeviceManager/CompanionDeviceManager.apk,/data/user/0/com.android.companiondevicemanager
aff4:/C.877c69c01bceb8ef,,,None,,,,,,2022-12-27 23:30:37,None,None,,,,aff4:/hunts/H:D350C1F9,,,,,,,,,,,,,,,Connectivity Monitor,com.google.android.connectivitymonitor,9,28,28,28,UNDEFINED,1,1001,android.uid.phone,2009-01-01 08:00:00,2009-01-01 08:00:00,UNSPECIFIED,/system/app/ConnectivityMonitor/ConnectivityMonitor.apk,/data/user/0/com.google.android.connectivitymonitor
aff4:/C.877c69c01bceb8ef,,,None,,,,,,2022-12-27 23:30:37,None,None,,,,aff4:/hunts/H:D350C1F9,,,,,,,,,,,,,,,com.verizon.obdm_permissions,com.verizon.obdm_permissions,3,3,16,24,UNDEFINED,0,10009,,2009-01-01 08:00:00,2009-01-01 08:00:00,UNSPECIFIED,/system/priv-app/OBDM_Permissions/OBDM_Permissions.apk,/data/user/0/com.verizon.obdm_permissions
aff4:/C.877c69c01bceb8ef,,,None,,,,,,2022-12-27 23:30:37,None,None,,,,aff4:/hunts/H:D350C1F9,,,,,,,,,,,,,,,MmsService,com.android.mms.service,9,28,28,28,UNDEFINED,1,1001,android.uid.phone,2009-01-01 08:00:00,2009-01-01 08:00:00,UNSPECIFIED,/system/priv-app/MmsService/MmsService.apk,/data/user/0/com.android.mms.service
aff4:/C.877c69c01bceb8ef,,,None,,,,,,2022-12-27 23:30:37,None,None,,,,aff4:/hunts/H:D350C1F9,,,,,,,,,,,,,,,Download Manager,com.android.providers.downloads,9,28,28,28,UNDEFINED,1,10028,android.media,2009-01-01 08:00:00,2009-01-01 08:00:00,UNSPECIFIED,/system/priv-app/DownloadProvider/DownloadProvider.apk,/data/user/0/com.android.providers.downloads
aff4:/C.877c69c01bceb8ef,,,None,,,,,,2022-12-27 23:30:37,None,None,,,,aff4:/hunts/H:D350C1F9,,,,,,,,,,,,,,,Messages,com.google.android.apps.messaging,messages.android_20221101_01_RC01.phone_dynamic,157556063,26,33,SOCIAL,1,10080,,2009-01-01 08:00:00,2022-11-28 09:54:19,INTERNAL_ONLY,/data/app/com.google.android.apps.messaging-8lJuR2xnWFwWEl6hJ5bCJQ==/base.apk,/data/user/0/com.google.android.apps.messaging
aff4:/C.877c69c01bceb8ef,,,None,,,,,,2022-12-27 23:30:37,None,None,,,,aff4:/hunts/H:D350C1F9,,,,,,,,,,,,,,,Pixel,com.google.android.theme.pixel,1.0,1,28,28,UNDEFINED,1,10001,,2009-01-01 08:00:00,2009-01-01 08:00:00,UNSPECIFIED,/vendor/overlay/Pixel/PixelThemeOverlay.apk,/data/user/0/com.google.android.theme.pixel
aff4:/C.877c69c01bceb8ef,,,None,,,,,,2022-12-27 23:30:37,None,None,,,,aff4:/hunts/H:D350C1F9,,,,,,,,,,,,,,,Sounds,com.google.android.soundpicker,1.0 (4795461),1000082,26,26,UNDEFINED,1,10094,,2009-01-01 08:00:00,2009-01-01 08:00:00,UNSPECIFIED,/system/app/SoundPickerPrebuilt/SoundPickerPrebuilt.apk,/data/user/0/com.google.android.soundpicker
aff4:/C.877c69c01bceb8ef,,,None,,,,,,2022-12-27 23:30:37,None,None,,,,aff4:/hunts/H:D350C1F9,,,,,,,,,,,,,,,Device configuration,android.autoinstalls.config.google.nexus,1,1,21,21,UNDEFINED,1,10105,,2009-01-01 08:00:00,2009-01-01 08:00:00,UNSPECIFIED,/system/app/PlayAutoInstallConfig/PlayAutoInstallConfig.apk,/data/user/0/android.autoinstalls.config.google.nexus
aff4:/C.877c69c01bceb8ef,,,None,,,,,,2022-12-27 23:30:37,None,None,,,,aff4:/hunts/H:D350C1F9,,,,,,,,,,,,,,,com.qualcomm.qti.telephonyservice,com.qualcomm.qti.telephonyservice,9,28,23,27,UNDEFINED,1,1001,android.uid.phone,2009-01-01 08:00:00,2009-01-01 08:00:00,UNSPECIFIED,/system/app/QtiTelephonyService/QtiTelephonyService.apk,/data/user/0/com.qualcomm.qti.telephonyservice
aff4:/C.877c69c01bceb8ef,,,None,,,,,,2022-12-27 23:30:37,None,None,,,,aff4:/hunts/H:D350C1F9,,,,,,,,,,,,,,,ConfigUpdater,com.google.android.configupdater,9,28,25,25,UNDEFINED,1,10061,,2009-01-01 08:00:00,2009-01-01 08:00:00,UNSPECIFIED,/system/priv-app/ConfigUpdater/ConfigUpdater.apk,/data/user/0/com.google.android.configupdater
aff4:/C.877c69c01bceb8ef,,,None,,,,,,2022-12-27 23:30:37,None,None,,,,aff4:/hunts/H:D350C1F9,,,,,,,,,,,,,,,Factory OTA Mode,com.google.android.factoryota,1.0.190114,28,26,28,UNDEFINED,1,10136,,2009-01-01 08:00:00,2009-01-01 08:00:00,UNSPECIFIED,/system/product/priv-app/FactoryOta/FactoryOta.apk,/data/user/0/com.google.android.factoryota
aff4:/C.877c69c01bceb8ef,,,None,,,,,,2022-12-27 23:30:37,None,None,,,,aff4:/hunts/H:D350C1F9,,,,,,,,,,,,,,,Package Access Helper,com.android.defcontainer,9,28,28,28,UNDEFINED,1,10027,,2009-01-01 08:00:00,2009-01-01 08:00:00,UNSPECIFIED,/system/priv-app/DefaultContainerService/DefaultContainerService.apk,/data/user_de/0/com.android.defcontainer
aff4:/C.877c69c01bceb8ef,,,None,,,,,,2022-12-27 23:30:37,None,None,,,,aff4:/hunts/H:D350C1F9,,,,,,,,,,,,,,,Time Zone Updater,com.android.timezone.updater,9,1,28,28,UNDEFINED,1,10032,,2009-01-01 08:00:00,2009-01-01 08:00:00,UNSPECIFIED,/system/priv-app/TimeZoneUpdater/TimeZoneUpdater.apk,/data/user/0/com.android.timezone.updater
aff4:/C.877c69c01bceb8ef,,,None,,,,,,2022-12-27 23:30:37,None,None,,,,aff4:/hunts/H:D350C1F9,,,,,,,,,,,,,,,Google Play Services for AR,com.google.ar.core,1.34.222640223,222640223,24,33,PRODUCTIVITY,1,10106,com.google.ar.core,2009-01-01 08:00:00,2022-11-28 09:48:15,UNSPECIFIED,/data/app/com.google.ar.core-4Mzce27CSp-EzMjvHjAJ1w==/base.apk,/data/user/0/com.google.ar.core
aff4:/C.877c69c01bceb8ef,,,None,,,,,,2022-12-27 23:30:37,None,None,,,,aff4:/hunts/H:D350C1F9,,,,,,,,,,,,,,,Downloads,com.android.providers.downloads.ui,9,28,28,28,UNDEFINED,1,10028,android.media,2009-01-01 08:00:00,2009-01-01 08:00:00,UNSPECIFIED,/system/priv-app/DownloadProviderUi/DownloadProviderUi.apk,/data/user/0/com.android.providers.downloads.ui
aff4:/C.877c69c01bceb8ef,,,None,,,,,,2022-12-27 23:30:37,None,None,,,,aff4:/hunts/H:D350C1F9,,,,,,,,,,,,,,,Google Play Store,com.android.vending,33.4.09-21 [0] [PR] 491412449,83340910,21,33,UNDEFINED,1,10042,,2009-01-01 08:00:00,2022-11-29 20:29:15,UNSPECIFIED,/data/app/com.android.vending-I8wHSEclLvM3hp4G7jeppw==/base.apk,/data/user/0/com.android.vending
aff4:/C.877c69c01bceb8ef,,,None,,,,,,2022-12-27 23:30:37,None,None,,,,aff4:/hunts/H:D350C1F9,,,,,,,,,,,,,,,PacProcessor,com.android.pacprocessor,9,28,28,28,UNDEFINED,1,10083,,2009-01-01 08:00:00,2009-01-01 08:00:00,UNSPECIFIED,/system/app/PacProcessor/PacProcessor.apk,/data/user/0/com.android.pacprocessor
aff4:/C.877c69c01bceb8ef,,,None,,,,,,2022-12-27 23:30:37,None,None,,,,aff4:/hunts/H:D350C1F9,,,,,,,,,,,,,,,Sim App Dialog,com.android.simappdialog,9,28,28,28,UNDEFINED,1,10125,,2009-01-01 08:00:00,2009-01-01 08:00:00,UNSPECIFIED,/system/app/SimAppDialog/SimAppDialog.apk,/data/user/0/com.android.simappdialog
aff4:/C.877c69c01bceb8ef,,,None,,,,,,2022-12-27 23:30:37,None,None,,,,aff4:/hunts/H:D350C1F9,,,,,,,,,,,,,,,Tall cutout,com.android.internal.display.cutout.emulation.tall,1.0,1,28,28,UNDEFINED,1,10006,,2009-01-01 08:00:00,2009-01-01 08:00:00,UNSPECIFIED,/vendor/overlay/DisplayCutoutEmulationTall/DisplayCutoutEmulationTallOverlay.apk,/data/user/0/com.android.internal.display.cutout.emulation.tall
aff4:/C.877c69c01bceb8ef,,,None,,,,,,2022-12-27 23:30:37,None,None,,,,aff4:/hunts/H:D350C1F9,,,,,,,,,,,,,,,com.google.vr.apps.ornament.content.stickers.hoops,com.google.vr.apps.ornament.content.stickers.hoops,0.1,180521004,24,27,UNDEFINED,1,10126,,2009-01-01 08:00:00,2009-01-01 08:00:00,UNSPECIFIED,/system/app/StickersSports/StickersSports.apk,/data/user/0/com.google.vr.apps.ornament.content.stickers.hoops
aff4:/C.877c69c01bceb8ef,,,None,,,,,,2022-12-27 23:30:37,None,None,,,,aff4:/hunts/H:D350C1F9,,,,,,,,,,,,,,,Certificate Installer,com.android.certinstaller,9,28,28,28,UNDEFINED,1,10091,,2009-01-01 08:00:00,2009-01-01 08:00:00,UNSPECIFIED,/system/app/CertInstaller/CertInstaller.apk,/data/user/0/com.android.certinstaller
aff4:/C.877c69c01bceb8ef,,,None,,,,,,2022-12-27 23:30:37,None,None,,,,aff4:/hunts/H:D350C1F9,,,,,,,,,,,,,,,Android Accessibility Suite,com.google.android.marvin.talkback,13.0.0.473912301,60125050,26,33,PRODUCTIVITY,1,10121,com.google.android.marvin.feedback,2009-01-01 08:00:00,2022-11-30 07:55:06,INTERNAL_ONLY,/data/app/com.google.android.marvin.talkback-362O7hDt1r8cZmcYAs3NPQ==/base.apk,/data/user/0/com.google.android.marvin.talkback
aff4:/C.877c69c01bceb8ef,,,None,,,,,,2022-12-27 23:30:37,None,None,,,,aff4:/hunts/H:D350C1F9,,,,,,,,,,,,,,,Device setup,com.google.android.apps.work.oobconfig,1.0.233975257,90,25,28,UNDEFINED,0,10060,,2009-01-01 08:00:00,2009-01-01 08:00:00,UNSPECIFIED,/system/priv-app/OTAConfigPrebuilt/OTAConfigPrebuilt.apk,/data/user/0/com.google.android.apps.work.oobconfig
aff4:/C.877c69c01bceb8ef,,,None,,,,,,2022-12-27 23:30:37,None,None,,,,aff4:/hunts/H:D350C1F9,,,,,,,,,,,,,,,com.qti.qualcomm.datastatusnotification,com.qti.qualcomm.datastatusnotification,9,28,28,28,UNDEFINED,1,1001,android.uid.phone,2009-01-01 08:00:00,2009-01-01 08:00:00,UNSPECIFIED,/system/app/datastatusnotification/datastatusnotification.apk,/data/user/0/com.qti.qualcomm.datastatusnotification
aff4:/C.877c69c01bceb8ef,,,None,,,,,,2022-12-27 23:30:37,None,None,,,,aff4:/hunts/H:D350C1F9,,,,,,,,,,,,,,,Android System,android,9,28,28,28,UNDEFINED,1,1000,android.uid.system,2009-01-01 08:00:00,2009-01-01 08:00:00,UNSPECIFIED,/system/framework/framework-res.apk,/data/system
aff4:/C.877c69c01bceb8ef,,,None,,,,,,2022-12-27 23:30:37,None,None,,,,aff4:/hunts/H:D350C1F9,,,,,,,,,,,,,,,X Google enrollment,com.android.hotwordenrollment.xgoogle,9,28,28,28,UNDEFINED,1,10011,,2009-01-01 08:00:00,2009-01-01 08:00:00,UNSPECIFIED,/system/priv-app/HotwordEnrollmentXGoogleRT5514/HotwordEnrollmentXGoogleRT5514.apk,/data/user/0/com.android.hotwordenrollment.xgoogle
aff4:/C.877c69c01bceb8ef,,,None,,,,,,2022-12-27 23:30:37,None,None,,,,aff4:/hunts/H:D350C1F9,,,,,,,,,,,,,,,com.google.android.grilservice,com.google.android.grilservice,9,28,28,28,UNDEFINED,1,1001,android.uid.phone,2009-01-01 08:00:00,2009-01-01 08:00:00,UNSPECIFIED,/system/priv-app/grilservice/grilservice.apk,/data/user/0/com.google.android.grilservice
aff4:/C.877c69c01bceb8ef,,,None,,,,,,2022-12-27 23:30:37,None,None,,,,aff4:/hunts/H:D350C1F9,,,,,,,,,,,,,,,Pixel Visual Core Service,com.google.android.imaging.easel.service,1.0.166778097,72,26,26,UNDEFINED,1,10084,,2009-01-01 08:00:00,2009-01-01 08:00:00,UNSPECIFIED,/system/app/EaselServicePrebuilt/EaselServicePrebuilt.apk,/data/user/0/com.google.android.imaging.easel.service
aff4:/C.877c69c01bceb8ef,,,None,,,,,,2022-12-27 23:30:37,None,None,,,,aff4:/hunts/H:D350C1F9,,,,,,,,,,,,,,,PAINT.APK,com.android.egg,1.0,1,28,28,UNDEFINED,1,10132,,2009-01-01 08:00:00,2009-01-01 08:00:00,UNSPECIFIED,/system/app/EasterEgg/EasterEgg.apk,/data/user/0/com.android.egg
aff4:/C.877c69c01bceb8ef,,,None,,,,,,2022-12-27 23:30:37,None,None,,,,aff4:/hunts/H:D350C1F9,,,,,,,,,,,,,,,MTP Host,com.android.mtp,9,28,28,28,UNDEFINED,1,10028,android.media,2009-01-01 08:00:00,2009-01-01 08:00:00,UNSPECIFIED,/system/priv-app/MtpDocumentsProvider/MtpDocumentsProvider.apk,/data/user/0/com.android.mtp
aff4:/C.877c69c01bceb8ef,,,None,,,,,,2022-12-27 23:30:37,None,None,,,,aff4:/hunts/H:D350C1F9,,,,,,,,,,,,,,,Nfc Service,com.android.nfc,9,28,28,28,UNDEFINED,1,1027,android.uid.nfc,2009-01-01 08:00:00,2009-01-01 08:00:00,UNSPECIFIED,/system/app/NfcNci/NfcNci.apk,/data/user/0/com.android.nfc
aff4:/C.877c69c01bceb8ef,,,None,,,,,,2022-12-27 23:30:37,None,None,,,,aff4:/hunts/H:D350C1F9,,,,,,,,,,,,,,,SIM Toolkit,com.android.stk,9,28,28,28,UNDEFINED,1,1001,android.uid.phone,2009-01-01 08:00:00,2009-01-01 08:00:00,UNSPECIFIED,/system/app/Stk/Stk.apk,/data/user_de/0/com.android.stk
aff4:/C.877c69c01bceb8ef,,,None,,,,,,2022-12-27 23:30:37,None,None,,,,aff4:/hunts/H:D350C1F9,,,,,,,,,,,,,,,com.android.backupconfirm,com.android.backupconfirm,9,28,28,28,UNDEFINED,1,10035,,2009-01-01 08:00:00,2009-01-01 08:00:00,UNSPECIFIED,/system/priv-app/BackupRestoreConfirmation/BackupRestoreConfirmation.apk,/data/user/0/com.android.backupconfirm
aff4:/C.877c69c01bceb8ef,,,None,,,,,,2022-12-27 23:30:37,None,None,,,,aff4:/hunts/H:D350C1F9,,,,,,,,,,,,,,,Clock,com.google.android.deskclock,7.3 (482632418),73003398,23,33,PRODUCTIVITY,1,10089,,2009-01-01 08:00:00,2022-11-28 09:49:44,UNSPECIFIED,/data/app/com.google.android.deskclock-xSWnPOjljHRKOguh3ctZLA==/base.apk,/data/user/0/com.google.android.deskclock
aff4:/C.877c69c01bceb8ef,,,None,,,,,,2022-12-27 23:30:37,None,None,,,,aff4:/hunts/H:D350C1F9,,,,,,,,,,,,,,,org.codeaurora.ims,org.codeaurora.ims,1.0,1,23,27,UNDEFINED,1,1001,android.uid.phone,2009-01-01 08:00:00,2009-01-01 08:00:00,UNSPECIFIED,/system/app/ims/ims.apk,/data/user/0/org.codeaurora.ims
aff4:/C.877c69c01bceb8ef,,,None,,,,,,2022-12-27 23:30:37,None,None,,,,aff4:/hunts/H:D350C1F9,,,,,,,,,,,,,,,Intent Filter Verification Service,com.android.statementservice,1.0,1,28,28,UNDEFINED,1,10023,,2009-01-01 08:00:00,2009-01-01 08:00:00,UNSPECIFIED,/system/priv-app/StatementService/StatementService.apk,/data/user/0/com.android.statementservice
aff4:/C.877c69c01bceb8ef,,,None,,,,,,2022-12-27 23:30:37,None,None,,,,aff4:/hunts/H:D350C1F9,,,,,,,,,,,,,,,Actions Services,com.google.android.as,1.0.197903483,263,28,28,UNDEFINED,1,10066,,2009-01-01 08:00:00,2009-01-01 08:00:00,UNSPECIFIED,/system/priv-app/MatchmakerPrebuilt/MatchmakerPrebuilt.apk,/data/user/0/com.google.android.as
aff4:/C.877c69c01bceb8ef,,,None,,,,,,2022-12-27 23:30:37,None,None,,,,aff4:/hunts/H:D350C1F9,,,,,,,,,,,,,,,Gmail,com.google.android.gm,2022.10.16.486292356.Release,63527754,23,33,SOCIAL,1,10082,,2009-01-01 08:00:00,2022-11-28 09:44:09,UNSPECIFIED,/data/app/com.google.android.gm-rnl8_PlFfs_0W2FlwxzUIA==/base.apk,/data/user/0/com.google.android.gm
aff4:/C.877c69c01bceb8ef,,,None,,,,,,2022-12-27 23:30:37,None,None,,,,aff4:/hunts/H:D350C1F9,,,,,,,,,,,,,,,Carrier Settings,com.google.android.carrier,1.0.0,2,25,28,UNDEFINED,1,10053,,2009-01-01 08:00:00,2009-01-01 08:00:00,UNSPECIFIED,/system/priv-app/CarrierSettings/CarrierSettings.apk,/data/user_de/0/com.google.android.carrier
aff4:/C.877c69c01bceb8ef,,,None,,,,,,2022-12-27 23:30:37,None,None,,,,aff4:/hunts/H:D350C1F9,,,,,,,,,,,,,,,SprintDM,com.android.sdm.plugins.sprintdm,1.0,1,19,23,UNDEFINED,0,1001,android.uid.phone,2009-01-01 08:00:00,2009-01-01 08:00:00,UNSPECIFIED,/system/priv-app/SprintDM/SprintDM.apk,/data/user/0/com.android.sdm.plugins.sprintdm
aff4:/C.877c69c01bceb8ef,,,None,,,,,,2022-12-27 23:30:37,None,None,,,,aff4:/hunts/H:D350C1F9,,,,,,,,,,,,,,,Dark,com.android.systemui.theme.dark,1.0,1,28,28,UNDEFINED,1,10003,,2009-01-01 08:00:00,2009-01-01 08:00:00,UNSPECIFIED,/vendor/overlay/SysuiDarkTheme/SysuiDarkThemeOverlay.apk,/data/user/0/com.android.systemui.theme.dark
aff4:/C.877c69c01bceb8ef,,,None,,,,,,2022-12-27 23:30:37,None,None,,,,aff4:/hunts/H:D350C1F9,,,,,,,,,,,,,,,Pixel Ambient Services,com.google.intelligence.sense,1.0.215774583,759,26,28,UNDEFINED,1,10039,,2009-01-01 08:00:00,2009-01-01 08:00:00,UNSPECIFIED,/system/priv-app/AmbientSensePrebuilt/AmbientSensePrebuilt.apk,/data/user/0/com.google.intelligence.sense
aff4:/C.877c69c01bceb8ef,,,None,,,,,,2022-12-27 23:30:37,None,None,,,,aff4:/hunts/H:D350C1F9,,,,,,,,,,,,,,,Pixel Setup,com.google.android.setupwizard,228,228,26,28,UNDEFINED,1,10049,,2009-01-01 08:00:00,2009-01-01 08:00:00,UNSPECIFIED,/system/priv-app/SetupWizard/SetupWizard.apk,/data/user/0/com.google.android.setupwizard
aff4:/C.877c69c01bceb8ef,,,None,,,,,,2022-12-27 23:30:37,None,None,,,,aff4:/hunts/H:D350C1F9,,,,,,,,,,,,,,,com.qualcomm.qcrilmsgtunnel,com.qualcomm.qcrilmsgtunnel,9,28,23,27,UNDEFINED,1,1001,android.uid.phone,2009-01-01 08:00:00,2009-01-01 08:00:00,UNSPECIFIED,/system/priv-app/qcrilmsgtunnel/qcrilmsgtunnel.apk,/data/user/0/com.qualcomm.qcrilmsgtunnel
aff4:/C.877c69c01bceb8ef,,,None,,,,,,2022-12-27 23:30:37,None,None,,,,aff4:/hunts/H:D350C1F9,,,,,,,,,,,,,,,Settings Storage,com.android.providers.settings,9,28,28,28,UNDEFINED,1,1000,android.uid.system,2009-01-01 08:00:00,2009-01-01 08:00:00,UNSPECIFIED,/system/priv-app/SettingsProvider/SettingsProvider.apk,/data/user_de/0/com.android.providers.settings
aff4:/C.877c69c01bceb8ef,,,None,,,,,,2022-12-27 23:30:37,None,None,,,,aff4:/hunts/H:D350C1F9,,,,,,,,,,,,,,,com.android.sharedstoragebackup,com.android.sharedstoragebackup,9,28,28,28,UNDEFINED,1,10046,,2009-01-01 08:00:00,2009-01-01 08:00:00,UNSPECIFIED,/system/priv-app/SharedStorageBackup/SharedStorageBackup.apk,/data/user/0/com.android.sharedstoragebackup
aff4:/C.877c69c01bceb8ef,,,None,,,,,,2022-12-27 23:30:37,None,None,,,,aff4:/hunts/H:D350C1F9,,,,,,,,,,,,,,,AppDirectedSMSService,com.verizon.services,1.0,1,23,24,UNDEFINED,0,10043,,2009-01-01 08:00:00,2009-01-01 08:00:00,UNSPECIFIED,/system/priv-app/AppDirectedSMSService/AppDirectedSMSService.apk,/data/user/0/com.verizon.services
aff4:/C.877c69c01bceb8ef,,,None,,,,,,2022-12-27 23:30:37,None,None,,,,aff4:/hunts/H:D350C1F9,,,,,,,,,,,,,,,eSIM Manager,com.google.android.euicc,C.1.3.80-google (5261114),13805,28,28,UNDEFINED,1,10073,,2009-01-01 08:00:00,2009-01-01 08:00:00,UNSPECIFIED,/system/priv-app/EuiccGoogle/EuiccGoogle.apk,/data/user_de/0/com.google.android.euicc
aff4:/C.877c69c01bceb8ef,,,None,,,,,,2022-12-27 23:30:37,None,None,,,,aff4:/hunts/H:D350C1F9,,,,,,,,,,,,,,,Google Play Music,com.google.android.music,8.17.7736-1.K,77361,16,28,AUDIO,1,10102,,2009-01-01 08:00:00,2009-01-01 08:00:00,UNSPECIFIED,/system/app/Music2/Music2.apk,/data/user/0/com.google.android.music
aff4:/C.877c69c01bceb8ef,,,None,,,,,,2022-12-27 23:30:37,None,None,,,,aff4:/hunts/H:D350C1F9,,,,,,,,,,,,,,,Print Spooler,com.android.printspooler,9,28,28,28,UNDEFINED,1,10123,,2009-01-01 08:00:00,2009-01-01 08:00:00,UNSPECIFIED,/system/app/PrintSpooler/PrintSpooler.apk,/data/user/0/com.android.printspooler
aff4:/C.877c69c01bceb8ef,,,None,,,,,,2022-12-27 23:30:37,None,None,,,,aff4:/hunts/H:D350C1F9,,,,,,,,,,,,,,,OK Google enrollment,com.android.hotwordenrollment.okgoogle,9,28,28,28,UNDEFINED,1,10057,,2009-01-01 08:00:00,2009-01-01 08:00:00,UNSPECIFIED,/system/priv-app/HotwordEnrollmentOKGoogleRT5514/HotwordEnrollmentOKGoogleRT5514.apk,/data/user/0/com.android.hotwordenrollment.okgoogle
aff4:/C.877c69c01bceb8ef,,,None,,,,,,2022-12-27 23:30:37,None,None,,,,aff4:/hunts/H:D350C1F9,,,,,,,,,,,,,,,com.android.sdm.plugins.diagmon,com.android.sdm.plugins.diagmon,9,28,28,28,UNDEFINED,0,1001,android.uid.phone,2009-01-01 08:00:00,2009-01-01 08:00:00,UNSPECIFIED,/system/priv-app/DiagMon/DiagMon.apk,/data/user/0/com.android.sdm.plugins.diagmon
aff4:/C.877c69c01bceb8ef,,,None,,,,,,2022-12-27 23:30:37,None,None,,,,aff4:/hunts/H:D350C1F9,,,,,,,,,,,,,,,Basic Daydreams,com.android.dreams.basic,9,28,28,28,UNDEFINED,1,10081,,2009-01-01 08:00:00,2009-01-01 08:00:00,UNSPECIFIED,/system/app/BasicDreams/BasicDreams.apk,/data/user/0/com.android.dreams.basic
aff4:/C.877c69c01bceb8ef,,,None,,,,,,2022-12-27 23:30:37,None,None,,,,aff4:/hunts/H:D350C1F9,,,,,,,,,,,,,,,SecureElementApplication,com.android.se,9,28,28,28,UNDEFINED,1,1068,android.uid.se,2009-01-01 08:00:00,2009-01-01 08:00:00,UNSPECIFIED,/system/app/SecureElement/SecureElement.apk,/data/user/0/com.android.se
aff4:/C.877c69c01bceb8ef,,,None,,,,,,2022-12-27 23:30:37,None,None,,,,aff4:/hunts/H:D350C1F9,,,,,,,,,,,,,,,com.google.vr.apps.ornament.content.stickers.metronome,com.google.vr.apps.ornament.content.stickers.metronome,0.1,180521004,24,27,UNDEFINED,1,10128,,2009-01-01 08:00:00,2009-01-01 08:00:00,UNSPECIFIED,/system/app/StickersMusic/StickersMusic.apk,/data/user/0/com.google.vr.apps.ornament.content.stickers.metronome
aff4:/C.877c69c01bceb8ef,,,None,,,,,,2022-12-27 23:30:37,None,None,,,,aff4:/hunts/H:D350C1F9,,,,,,,,,,,,,,,Input Devices,com.android.inputdevices,9,28,28,28,UNDEFINED,1,1000,android.uid.system,2009-01-01 08:00:00,2009-01-01 08:00:00,UNSPECIFIED,/system/priv-app/InputDevices/InputDevices.apk,/data/user_de/0/com.android.inputdevices
aff4:/C.877c69c01bceb8ef,,,None,,,,,,2022-12-27 23:30:37,None,None,,,,aff4:/hunts/H:D350C1F9,,,,,,,,,,,,,,,Digital Wellbeing,com.google.android.apps.wellbeing,1.3.478761307 (439367),439367,28,33,PRODUCTIVITY,1,10013,,2009-01-01 08:00:00,2022-11-28 09:46:51,UNSPECIFIED,/data/app/com.google.android.apps.wellbeing-PLdCvUZLL-1t1WGUwWmzTQ==/base.apk,/data/user/0/com.google.android.apps.wellbeing
aff4:/C.877c69c01bceb8ef,,,None,,,,,,2022-12-27 23:30:37,None,None,,,,aff4:/hunts/H:D350C1F9,,,,,,,,,,,,,,,Phone,com.google.android.dialer,94.0.488803600,10681108,24,33,PRODUCTIVITY,1,10070,,2009-01-01 08:00:00,2022-12-01 05:09:41,UNSPECIFIED,/data/app/com.google.android.dialer-UiA3SzEXF1mkqqdQhxBEYw==/base.apk,/data/user/0/com.google.android.dialer
aff4:/C.877c69c01bceb8ef,,,None,,,,,,2022-12-27 23:30:37,None,None,,,,aff4:/hunts/H:D350C1F9,,,,,,,,,,,,,,,Default Print Service,com.android.bips,9,28,28,28,UNDEFINED,1,10104,,2009-01-01 08:00:00,2009-01-01 08:00:00,UNSPECIFIED,/system/app/BuiltInPrintService/BuiltInPrintService.apk,/data/user/0/com.android.bips
aff4:/C.877c69c01bceb8ef,,,None,,,,,,2022-12-27 23:30:37,None,None,,,,aff4:/hunts/H:D350C1F9,,,,,,,,,,,,,,,Live Transcribe & Sound Notifications,com.google.audio.hearing.visualization.accessibility.scribe,6.0.473258425,90668,23,33,SOCIAL,1,10022,,2009-01-01 08:00:00,2022-11-28 23:04:50,UNSPECIFIED,/data/app/com.google.audio.hearing.visualization.accessibility.scribe-TZiQH1-NonpbK0BQDRW_0g==/base.apk,/data/user/0/com.google.audio.hearing.visualization.accessibility.scribe
aff4:/C.877c69c01bceb8ef,,,None,,,,,,2022-12-27 23:30:37,None,None,,,,aff4:/hunts/H:D350C1F9,,,,,,,,,,,,,,,VirtualApp,com.example.trustedcontainervirtualapp,2.2.3,180080814,21,26,UNDEFINED,1,10146,,2022-11-21 11:47:33,2022-11-21 11:47:33,UNSPECIFIED,/data/app/com.example.trustedcontainervirtualapp-aRSIfT3vZfoq9ViY0TVbZw==/base.apk,/data/user/0/com.example.trustedcontainervirtualapp
aff4:/C.877c69c01bceb8ef,,,None,,,,,,2022-12-27 23:30:37,None,None,,,,aff4:/hunts/H:D350C1F9,,,,,,,,,,,,,,,VerizonUnifiedSettingsDialog,com.google.android.carrier.authdialog,9,28,28,28,UNDEFINED,0,10014,,2009-01-01 08:00:00,2009-01-01 08:00:00,UNSPECIFIED,/system/priv-app/VerizonAuthDialog/VerizonAuthDialog.apk,/data/user/0/com.google.android.carrier.authdialog
aff4:/C.877c69c01bceb8ef,,,None,,,,,,2022-12-27 23:30:37,None,None,,,,aff4:/hunts/H:D350C1F9,,,,,,,,,,,,,,,Sound Amplifier,com.google.android.accessibility.soundamplifier,4.3.476043581,177500,27,33,SOCIAL,1,10064,,2009-01-01 08:00:00,2022-11-30 03:56:21,UNSPECIFIED,/data/app/com.google.android.accessibility.soundamplifier-urEfPQR_xd1Yk4GTS-cpFQ==/base.apk,/data/user/0/com.google.android.accessibility.soundamplifier
aff4:/C.877c69c01bceb8ef,,,None,,,,,,2022-12-27 23:30:37,None,None,,,,aff4:/hunts/H:D350C1F9,,,,,,,,,,,,,,,MusicFX,com.android.musicfx,1.4,10400,28,28,UNDEFINED,1,10024,,2009-01-01 08:00:00,2009-01-01 08:00:00,AUTO,/system/priv-app/MusicFX/MusicFX.apk,/data/user/0/com.android.musicfx
aff4:/C.877c69c01bceb8ef,,,None,,,,,,2022-12-27 23:30:37,None,None,,,,aff4:/hunts/H:D350C1F9,,,,,,,,,,,,,,,Drive,com.google.android.apps.docs,2.22.457.2.all.alldpi,212936756,23,33,PRODUCTIVITY,1,10108,,2009-01-01 08:00:00,2022-11-30 23:14:38,UNSPECIFIED,/data/app/com.google.android.apps.docs-CA1fYfHFy6qgl0nZdYj8Ag==/base.apk,/data/user/0/com.google.android.apps.docs
aff4:/C.877c69c01bceb8ef,,,None,,,,,,2022-12-27 23:30:37,None,None,,,,aff4:/hunts/H:D350C1F9,,,,,,,,,,,,,,,Maps,com.google.android.apps.maps,11.57.4801,1066791007,23,33,MAPS,1,10109,com.google.android.apps.maps,2009-01-01 08:00:00,2022-11-28 09:52:30,UNSPECIFIED,/data/app/com.google.android.apps.maps-OChSJocAWDMolGcXTqNPfA==/base.apk,/data/user/0/com.google.android.apps.maps
aff4:/C.877c69c01bceb8ef,,,None,,,,,,2022-12-27 23:30:37,None,None,,,,aff4:/hunts/H:D350C1F9,,,,,,,,,,,,,,,Pixel Tips,com.google.android.apps.tips,1.1 (5188087),11001820,28,28,UNDEFINED,1,10019,,2009-01-01 08:00:00,2009-01-01 08:00:00,UNSPECIFIED,/system/priv-app/TipsPrebuilt/TipsPrebuilt.apk,/data/user/0/com.google.android.apps.tips
aff4:/C.877c69c01bceb8ef,,,None,,,,,,2022-12-27 23:30:37,None,None,,,,aff4:/hunts/H:D350C1F9,,,,,,,,,,,,,,,Markup,com.google.android.markup,9,28,21,26,UNDEFINED,1,10078,,2009-01-01 08:00:00,2009-01-01 08:00:00,UNSPECIFIED,/system/app/MarkupGoogle/MarkupGoogle.apk,/data/user/0/com.google.android.markup
aff4:/C.877c69c01bceb8ef,,,None,,,,,,2022-12-27 23:30:37,None,None,,,,aff4:/hunts/H:D350C1F9,,,,,,,,,,,,,,,Cell Broadcasts,com.android.cellbroadcastreceiver,9,28,28,28,UNDEFINED,1,10051,,2009-01-01 08:00:00,2009-01-01 08:00:00,UNSPECIFIED,/system/priv-app/CellBroadcastReceiver/CellBroadcastReceiver.apk,/data/user_de/0/com.android.cellbroadcastreceiver
aff4:/C.877c69c01bceb8ef,,,None,,,,,,2022-12-27 23:30:37,None,None,,,,aff4:/hunts/H:D350C1F9,,,,,,,,,,,,,,,Android System WebView,com.google.android.webview,71.0.3578.99,357809900,24,28,UNDEFINED,0,10085,,2009-01-01 08:00:00,2009-01-01 08:00:00,UNSPECIFIED,/system/app/WebViewStub/WebViewStub.apk,/data/user/0/com.google.android.webview
aff4:/C.877c69c01bceb8ef,,,None,,,,,,2022-12-27 23:30:37,None,None,,,,aff4:/hunts/H:D350C1F9,,,,,,,,,,,,,,,android.telephony.overlay.cmcc,android.telephony.overlay.cmcc,9,28,28,28,UNDEFINED,1,10005,,2009-01-01 08:00:00,2009-01-01 08:00:00,UNSPECIFIED,/vendor/overlay/ChinaMobileFrameworksRes/ChinaMobileFrameworksRes.apk,/data/user/0/android.telephony.overlay.cmcc
aff4:/C.877c69c01bceb8ef,,,None,,,,,,2022-12-27 23:30:37,None,None,,,,aff4:/hunts/H:D350C1F9,,,,,,,,,,,,,,,Carrier App Logging,com.google.android.apps.carrier.log,0.0.1,1,26,26,UNDEFINED,1,10124,,2009-01-01 08:00:00,2009-01-01 08:00:00,UNSPECIFIED,/system/app/CarrierMetrics/CarrierMetrics.apk,/data/user/0/com.google.android.apps.carrier.log
aff4:/C.877c69c01bceb8ef,,,None,,,,,,2022-12-27 23:30:37,None,None,,,,aff4:/hunts/H:D350C1F9,,,,,,,,,,,,,,,Pixel Modem Service,com.google.modemservice,9,28,28,28,UNDEFINED,1,10038,,2009-01-01 08:00:00,2009-01-01 08:00:00,UNSPECIFIED,/system/priv-app/ModemService/ModemService.apk,/data/user/0/com.google.modemservice
aff4:/C.877c69c01bceb8ef,,,None,,,,,,2022-12-27 23:30:37,None,None,,,,aff4:/hunts/H:D350C1F9,,,,,,,,,,,,,,,Contacts,com.google.android.contacts,3.81.23.488847150,2917066,23,33,SOCIAL,1,10111,,2009-01-01 08:00:00,2022-11-30 03:52:12,UNSPECIFIED,/data/app/com.google.android.contacts-WU0TsrK8M0lWMBsjid5rTQ==/base.apk,/data/user/0/com.google.android.contacts
aff4:/C.877c69c01bceb8ef,,,None,,,,,,2022-12-27 23:30:37,None,None,,,,aff4:/hunts/H:D350C1F9,,,,,,,,,,,,,,,Call Management,com.android.server.telecom,9,28,28,28,UNDEFINED,1,1000,android.uid.system,2009-01-01 08:00:00,2009-01-01 08:00:00,UNSPECIFIED,/system/priv-app/Telecom/Telecom.apk,/data/user_de/0/com.android.server.telecom
aff4:/C.877c69c01bceb8ef,,,None,,,,,,2022-12-27 23:30:37,None,None,,,,aff4:/hunts/H:D350C1F9,,,,,,,,,,,,,,,Google Contacts Sync,com.google.android.syncadapters.contacts,9,28,23,23,UNDEFINED,1,10096,,2009-01-01 08:00:00,2009-01-01 08:00:00,UNSPECIFIED,/system/app/GoogleContactsSyncAdapter/GoogleContactsSyncAdapter.apk,/data/user/0/com.google.android.syncadapters.contacts
aff4:/C.877c69c01bceb8ef,,,None,,,,,,2022-12-27 23:30:37,None,None,,,,aff4:/hunts/H:D350C1F9,,,,,,,,,,,,,,,Key Chain,com.android.keychain,9,28,28,28,UNDEFINED,1,1000,android.uid.system,2009-01-01 08:00:00,2009-01-01 08:00:00,UNSPECIFIED,/system/app/KeyChain/KeyChain.apk,/data/user/0/com.android.keychain
aff4:/C.877c69c01bceb8ef,,,None,,,,,,2022-12-27 23:30:37,None,None,,,,aff4:/hunts/H:D350C1F9,,,,,,,,,,,,,,,Calculator,com.google.android.calculator,8.3 (477856174),83000598,23,33,PRODUCTIVITY,1,10090,,2009-01-01 08:00:00,2022-11-29 02:59:17,UNSPECIFIED,/data/app/com.google.android.calculator-G1cgfipx8f2vUtYrC9kFxg==/base.apk,/data/user/0/com.google.android.calculator
aff4:/C.877c69c01bceb8ef,,,None,,,,,,2022-12-27 23:30:37,None,None,,,,aff4:/hunts/H:D350C1F9,,,,,,,,,,,,,,,com.android.service.ims.RcsServiceApp,com.android.service.ims,2.4.6,1,19,28,UNDEFINED,1,1001,android.uid.phone,2009-01-01 08:00:00,2009-01-01 08:00:00,UNSPECIFIED,/system/app/RcsService/RcsService.apk,/data/user/0/com.android.service.ims
aff4:/C.877c69c01bceb8ef,,,None,,,,,,2022-12-27 23:30:37,None,None,,,,aff4:/hunts/H:D350C1F9,,,,,,,,,,,,,,,Chrome,com.android.chrome,107.0.5304.141,530414123,24,33,SOCIAL,1,10097,,2009-01-01 08:00:00,2022-12-01 01:14:24,UNSPECIFIED,/data/app/com.android.chrome-wTpanZiK-3jz2q5V2O5GCQ==/base.apk,/data/user/0/com.android.chrome
aff4:/C.877c69c01bceb8ef,,,None,,,,,,2022-12-27 23:30:37,None,None,,,,aff4:/hunts/H:D350C1F9,,,,,,,,,,,,,,,Package installer,com.google.android.packageinstaller,9,28,28,28,UNDEFINED,1,10044,,2009-01-01 08:00:00,2009-01-01 08:00:00,UNSPECIFIED,/system/priv-app/GooglePackageInstaller/GooglePackageInstaller.apk,/data/user_de/0/com.google.android.packageinstaller
aff4:/C.877c69c01bceb8ef,,,None,,,,,,2022-12-27 23:30:37,None,None,,,,aff4:/hunts/H:D350C1F9,,,,,,,,,,,,,,,Google Play services,com.google.android.gms,22.44.17 (100400-488410709),224417028,28,33,UNDEFINED,1,10017,com.google.uid.shared,2009-01-01 08:00:00,2022-11-21 08:45:26,UNSPECIFIED,/data/app/com.google.android.gms-uW0fS3wlITxxzxfcYQdF7Q==/base.apk,/data/user/0/com.google.android.gms
aff4:/C.877c69c01bceb8ef,,,None,,,,,,2022-12-27 23:30:37,None,None,,,,aff4:/hunts/H:D350C1F9,,,,,,,,,,,,,,,Google Services Framework,com.google.android.gsf,9,28,28,28,UNDEFINED,1,10017,com.google.uid.shared,2009-01-01 08:00:00,2009-01-01 08:00:00,UNSPECIFIED,/system/priv-app/GoogleServicesFramework/GoogleServicesFramework.apk,/data/user/0/com.google.android.gsf
aff4:/C.877c69c01bceb8ef,,,None,,,,,,2022-12-27 23:30:37,None,None,,,,aff4:/hunts/H:D350C1F9,,,,,,,,,,,,,,,Carrier Services,com.google.android.ims,carrierservices.android_20221031_02_RC00.phone,31076436,26,33,SOCIAL,1,10015,,2009-01-01 08:00:00,2022-11-28 09:52:53,UNSPECIFIED,/data/app/com.google.android.ims-fDwnn6RK9YKEoujPv2-oAA==/base.apk,/data/user/0/com.google.android.ims
aff4:/C.877c69c01bceb8ef,,,None,,,,,,2022-12-27 23:30:37,None,None,,,,aff4:/hunts/H:D350C1F9,,,,,,,,,,,,,,,Tags,com.google.android.tag,1.1,101,28,28,UNDEFINED,1,10037,,2009-01-01 08:00:00,2009-01-01 08:00:00,UNSPECIFIED,/system/priv-app/TagGoogle/TagGoogle.apk,/data/user/0/com.google.android.tag
aff4:/C.877c69c01bceb8ef,,,None,,,,,,2022-12-27 23:30:37,None,None,,,,aff4:/hunts/H:D350C1F9,,,,,,,,,,,,,,,Speech Services by Google,com.google.android.tts,googletts.google-speech-apk_20220905.02_p0.472335477,210395421,23,33,PRODUCTIVITY,1,10118,,2009-01-01 08:00:00,2022-11-28 09:49:26,UNSPECIFIED,/data/app/com.google.android.tts-uvsL5JhBTPZ5iE1miNdi8w==/base.apk,/data/user/0/com.google.android.tts
aff4:/C.877c69c01bceb8ef,,,None,,,,,,2022-12-27 23:30:37,None,None,,,,aff4:/hunts/H:D350C1F9,,,,,,,,,,,,,,,Call Log Backup/Restore,com.android.calllogbackup,9,28,28,28,UNDEFINED,1,10031,android.uid.shared,2009-01-01 08:00:00,2009-01-01 08:00:00,UNSPECIFIED,/system/priv-app/CallLogBackup/CallLogBackup.apk,/data/user/0/com.android.calllogbackup
aff4:/C.877c69c01bceb8ef,,,None,,,,,,2022-12-27 23:30:37,None,None,,,,aff4:/hunts/H:D350C1F9,,,,,,,,,,,,,,,Google Partner Setup,com.google.android.partnersetup,9,28,26,28,UNDEFINED,1,10062,,2009-01-01 08:00:00,2009-01-01 08:00:00,UNSPECIFIED,/system/priv-app/GooglePartnerSetup/GooglePartnerSetup.apk,/data/user/0/com.google.android.partnersetup
aff4:/C.877c69c01bceb8ef,,,None,,,,,,2022-12-27 23:30:37,None,None,,,,aff4:/hunts/H:D350C1F9,,,,,,,,,,,,,,,Safety & regulatory manual,com.android.safetyregulatoryinfo,9,28,23,23,UNDEFINED,1,10095,,2009-01-01 08:00:00,2009-01-01 08:00:00,UNSPECIFIED,/system/app/SafetyRegulatoryInfo/SafetyRegulatoryInfo.apk,/data/user/0/com.android.safetyregulatoryinfo
aff4:/C.877c69c01bceb8ef,,,None,,,,,,2022-12-27 23:30:37,None,None,,,,aff4:/hunts/H:D350C1F9,,,,,,,,,,,,,,,Google Wallpaper Images,com.google.android.apps.wallpaper.nexus,nexus_wallpapers_20180605,170000000,16,27,UNDEFINED,1,10129,,2009-01-01 08:00:00,2009-01-01 08:00:00,UNSPECIFIED,/system/app/NexusWallpapersStubPrebuilt2018/NexusWallpapersStubPrebuilt2018.apk,/data/user/0/com.google.android.apps.wallpaper.nexus
aff4:/C.877c69c01bceb8ef,,,None,,,,,,2022-12-27 23:30:37,None,None,,,,aff4:/hunts/H:D350C1F9,,,,,,,,,,,,,,,Google TV,com.google.android.videos,4.37.20,43700214,23,33,VIDEO,1,10112,,2009-01-01 08:00:00,2022-11-30 00:00:15,UNSPECIFIED,/data/app/com.google.android.videos-KSpazMZ3zcCTt44cPWsLOg==/base.apk,/data/user/0/com.google.android.videos
aff4:/C.877c69c01bceb8ef,,,None,,,,,,2022-12-27 23:30:37,None,None,,,,aff4:/hunts/H:D350C1F9,,,,,,,,,,,,,,,Pixel Launcher,com.google.android.apps.nexuslauncher,9-5214744,604,28,28,UNDEFINED,1,10055,,2009-01-01 08:00:00,2009-01-01 08:00:00,UNSPECIFIED,/system/priv-app/NexusLauncherPrebuilt/NexusLauncherPrebuilt.apk,/data/user/0/com.google.android.apps.nexuslauncher
aff4:/C.877c69c01bceb8ef,,,None,,,,,,2022-12-27 23:30:37,None,None,,,,aff4:/hunts/H:D350C1F9,,,,,,,,,,,,,,,CarrierDefaultApp,com.android.carrierdefaultapp,9,28,28,28,UNDEFINED,1,10076,,2009-01-01 08:00:00,2009-01-01 08:00:00,UNSPECIFIED,/system/app/CarrierDefaultApp/CarrierDefaultApp.apk,/data/user/0/com.android.carrierdefaultapp
aff4:/C.877c69c01bceb8ef,,,None,,,,,,2022-12-27 23:30:37,None,None,,,,aff4:/hunts/H:D350C1F9,,,,,,,,,,,,,,,ProxyHandler,com.android.proxyhandler,9,28,28,28,UNDEFINED,1,10033,,2009-01-01 08:00:00,2009-01-01 08:00:00,UNSPECIFIED,/system/priv-app/ProxyHandler/ProxyHandler.apk,/data/user_de/0/com.android.proxyhandler
aff4:/C.877c69c01bceb8ef,,,None,,,,,,2022-12-27 23:30:37,None,None,,,,aff4:/hunts/H:D350C1F9,,,,,,,,,,,,,,,com.google.SSRestartDetector,com.google.SSRestartDetector,9,28,28,28,UNDEFINED,1,1000,android.uid.system,2009-01-01 08:00:00,2009-01-01 08:00:00,UNSPECIFIED,/system/product/app/SSRestartDetector/SSRestartDetector.apk,/data/user/0/com.google.SSRestartDetector
aff4:/C.877c69c01bceb8ef,,,None,,,,,,2022-12-27 23:30:37,None,None,,,,aff4:/hunts/H:D350C1F9,,,,,,,,,,,,,,,Retail Demo Mode,com.customermobile.preload.vzw,201702061336,12,15,23,UNDEFINED,0,10010,,2009-01-01 08:00:00,2009-01-01 08:00:00,UNSPECIFIED,/system/priv-app/Showcase/Showcase.apk,/data/user/0/com.customermobile.preload.vzw
aff4:/C.877c69c01bceb8ef,,,None,,,,,,2022-12-27 23:30:37,None,None,,,,aff4:/hunts/H:D350C1F9,,,,,,,,,,,,,,,Market Feedback Agent,com.google.android.feedback,9,28,23,23,UNDEFINED,1,10068,,2009-01-01 08:00:00,2009-01-01 08:00:00,UNSPECIFIED,/system/priv-app/GoogleFeedback/GoogleFeedback.apk,/data/user/0/com.google.android.feedback
aff4:/C.877c69c01bceb8ef,,,None,,,,,,2022-12-27 23:30:37,None,None,,,,aff4:/hunts/H:D350C1F9,,,,,,,,,,,,,,,Print Service Recommendation Service,com.google.android.printservice.recommendation,1.3.0,4,28,28,PRODUCTIVITY,1,10117,,2009-01-01 08:00:00,2009-01-01 08:00:00,UNSPECIFIED,/system/app/GooglePrintRecommendationService/GooglePrintRecommendationService.apk,/data/user/0/com.google.android.printservice.recommendation
aff4:/C.877c69c01bceb8ef,,,None,,,,,,2022-12-27 23:30:37,None,None,,,,aff4:/hunts/H:D350C1F9,,,,,,,,,,,,,,,Photos,com.google.android.apps.photos,6.15.0.489522616,45798233,23,33,IMAGE,1,10088,,2009-01-01 08:00:00,2022-11-28 09:51:09,AUTO,/data/app/com.google.android.apps.photos-4ticLcAlflwLx9fG8j9X4Q==/base.apk,/data/user/0/com.google.android.apps.photos
aff4:/C.877c69c01bceb8ef,,,None,,,,,,2022-12-27 23:30:37,None,None,,,,aff4:/hunts/H:D350C1F9,,,,,,,,,,,,,,,Calendar,com.google.android.calendar,2022.46.0-488202730-release,2017130946,21,33,PRODUCTIVITY,1,10114,com.google.android.calendar.uid.shared,2009-01-01 08:00:00,2022-11-28 09:46:29,UNSPECIFIED,/data/app/com.google.android.calendar-GXEFsbkrfux0CXHNJHuAsQ==/base.apk,/data/user/0/com.google.android.calendar
aff4:/C.877c69c01bceb8ef,,,None,,,,,,2022-12-27 23:30:37,None,None,,,,aff4:/hunts/H:D350C1F9,,,,,,,,,,,,,,,Work profile setup,com.android.managedprovisioning,9,28,28,28,UNDEFINED,1,10050,,2009-01-01 08:00:00,2009-01-01 08:00:00,UNSPECIFIED,/system/priv-app/ManagedProvisioning/ManagedProvisioning.apk,/data/user/0/com.android.managedprovisioning
aff4:/C.877c69c01bceb8ef,,,None,,,,,,2022-12-27 23:30:37,None,None,,,,aff4:/hunts/H:D350C1F9,,,,,,,,,,,,,,,com.android.sdm.plugins.dcmo,com.android.sdm.plugins.dcmo,9,28,28,28,UNDEFINED,0,1001,android.uid.phone,2009-01-01 08:00:00,2009-01-01 08:00:00,UNSPECIFIED,/system/priv-app/DCMO/DCMO.apk,/data/user/0/com.android.sdm.plugins.dcmo
aff4:/C.877c69c01bceb8ef,,,None,,,,,,2022-12-27 23:30:37,None,None,,,,aff4:/hunts/H:D350C1F9,,,,,,,,,,,,,,,com.android.providers.partnerbookmarks,com.android.providers.partnerbookmarks,9,28,28,28,UNDEFINED,1,10079,,2009-01-01 08:00:00,2009-01-01 08:00:00,UNSPECIFIED,/system/app/PartnerBookmarksProvider/PartnerBookmarksProvider.apk,/data/user/0/com.android.providers.partnerbookmarks
aff4:/C.877c69c01bceb8ef,,,None,,,,,,2022-12-27 23:30:37,None,None,,,,aff4:/hunts/H:D350C1F9,,,,,,,,,,,,,,,Presence,com.android.service.ims.presence,9,28,19,28,UNDEFINED,1,1001,android.uid.phone,2009-01-01 08:00:00,2009-01-01 08:00:00,UNSPECIFIED,/system/app/PresencePolling/PresencePolling.apk,/data/user/0/com.android.service.ims.presence
aff4:/C.877c69c01bceb8ef,,,None,,,,,,2022-12-27 23:30:37,None,None,,,,aff4:/hunts/H:D350C1F9,,,,,,,,,,,,,,,Live Wallpaper Picker,com.android.wallpaper.livepicker,9,28,28,28,UNDEFINED,1,10127,,2009-01-01 08:00:00,2009-01-01 08:00:00,UNSPECIFIED,/system/app/LiveWallpapersPicker/LiveWallpapersPicker.apk,/data/user/0/com.android.wallpaper.livepicker
aff4:/C.877c69c01bceb8ef,,,None,,,,,,2022-12-27 23:30:37,None,None,,,,aff4:/hunts/H:D350C1F9,,,,,,,,,,,,,,,com.google.android.gms.policy_sidecar_aps,com.google.android.gms.policy_sidecar_aps,24900.194323810.194323810,24900,26,14,UNDEFINED,1,10074,,2009-01-01 08:00:00,2009-01-01 08:00:00,UNSPECIFIED,/system/priv-app/AndroidPlatformServices/AndroidPlatformServices.apk,/data/user/0/com.google.android.gms.policy_sidecar_aps
aff4:/C.877c69c01bceb8ef,,,None,,,,,,2022-12-27 23:30:37,None,None,,,,aff4:/hunts/H:D350C1F9,,,,,,,,,,,,,,,Google Backup Transport,com.google.android.backuptransport,9,28,28,28,UNDEFINED,1,10017,com.google.uid.shared,2009-01-01 08:00:00,2009-01-01 08:00:00,UNSPECIFIED,/system/priv-app/GoogleBackupTransport/GoogleBackupTransport.apk,/data/user/0/com.google.android.backuptransport
aff4:/C.877c69c01bceb8ef,,,None,,,,,,2022-12-27 23:30:37,None,None,,,,aff4:/hunts/H:D350C1F9,,,,,,,,,,,,,,,Bookmark Provider,com.android.bookmarkprovider,9,28,28,28,UNDEFINED,1,10110,,2009-01-01 08:00:00,2009-01-01 08:00:00,UNSPECIFIED,/system/app/BookmarkProvider/BookmarkProvider.apk,/data/user/0/com.android.bookmarkprovider
aff4:/C.877c69c01bceb8ef,,,None,,,,,,2022-12-27 23:30:37,None,None,,,,aff4:/hunts/H:D350C1F9,,,,,,,,,,,,,,,Settings,com.android.settings,9,28,28,28,UNDEFINED,1,1000,android.uid.system,2009-01-01 08:00:00,2009-01-01 08:00:00,UNSPECIFIED,/system/priv-app/SettingsGoogle/SettingsGoogle.apk,/data/user_de/0/com.android.settings
aff4:/C.877c69c01bceb8ef,,,None,,,,,,2022-12-27 23:30:37,None,None,,,,aff4:/hunts/H:D350C1F9,,,,,,,,,,,,,,,com.qualcomm.qti.lpa,com.qualcomm.qti.lpa,9,28,28,28,UNDEFINED,1,1001,android.uid.phone,2009-01-01 08:00:00,2009-01-01 08:00:00,UNSPECIFIED,/system/app/uimlpaservice/uimlpaservice.apk,/data/user/0/com.qualcomm.qti.lpa
aff4:/C.877c69c01bceb8ef,,,None,,,,,,2022-12-27 23:30:37,None,None,,,,aff4:/hunts/H:D350C1F9,,,,,,,,,,,,,,,com.qualcomm.qti.uim,com.qualcomm.qti.uim,9,28,28,28,UNDEFINED,1,1001,android.uid.phone,2009-01-01 08:00:00,2009-01-01 08:00:00,UNSPECIFIED,/system/app/remotesimlockservice/remotesimlockservice.apk,/data/user/0/com.qualcomm.qti.uim
aff4:/C.877c69c01bceb8ef,,,None,,,,,,2022-12-27 23:30:37,None,None,,,,aff4:/hunts/H:D350C1F9,,,,,,,,,,,,,,,Carrier Setup,com.google.android.wfcactivation,9,28,26,28,UNDEFINED,1,10008,,2009-01-01 08:00:00,2009-01-01 08:00:00,UNSPECIFIED,/system/priv-app/WfcActivation/WfcActivation.apk,/data/user/0/com.google.android.wfcactivation
aff4:/C.877c69c01bceb8ef,,,None,,,,,,2022-12-27 23:30:37,None,None,,,,aff4:/hunts/H:D350C1F9,,,,,,,,,,,,,,,Data Transfer Tool,com.google.android.apps.pixelmigrate,1.0.486062797,878516,28,33,UNDEFINED,1,10048,,2009-01-01 08:00:00,2022-11-21 08:28:03,UNSPECIFIED,/data/app/com.google.android.apps.pixelmigrate--5simOOD71pOrF3J9TzHcw==/base.apk,/data/user/0/com.google.android.apps.pixelmigrate
aff4:/C.877c69c01bceb8ef,,,None,,,,,,2022-12-27 23:30:37,None,None,,,,aff4:/hunts/H:D350C1F9,,,,,,,,,,,,,,,Settings Suggestions,com.google.android.settings.intelligence,1.0.0.197685250,1000145834,28,28,UNDEFINED,1,10030,,2009-01-01 08:00:00,2009-01-01 08:00:00,UNSPECIFIED,/system/priv-app/SettingsIntelligenceGooglePrebuilt/SettingsIntelligenceGooglePrebuilt.apk,/data/user/0/com.google.android.settings.intelligence
aff4:/C.877c69c01bceb8ef,,,None,,,,,,2022-12-27 23:30:37,None,None,,,,aff4:/hunts/H:D350C1F9,,,,,,,,,,,,,,,Android Auto,com.google.android.projection.gearhead,8.4.624324-release,84624324,26,33,UNDEFINED,1,10113,com.google.android.projection.gearhead,2009-01-01 08:00:00,2022-11-29 22:08:51,UNSPECIFIED,/data/app/com.google.android.projection.gearhead-e2u_kd90vysHPYKN6HQ2og==/base.apk,/data/user/0/com.google.android.projection.gearhead
aff4:/C.877c69c01bceb8ef,,,None,,,,,,2022-12-27 23:30:37,None,None,,,,aff4:/hunts/H:D350C1F9,,,,,,,,,,,,,,,D-MAT,com.verizon.obdm,1.2.0,1,19,24,UNDEFINED,0,10020,,2009-01-01 08:00:00,2009-01-01 08:00:00,UNSPECIFIED,/system/priv-app/obdm_stub/obdm_stub.apk,/data/user/0/com.verizon.obdm
aff4:/C.877c69c01bceb8ef,,,None,,,,,,2022-12-27 23:30:37,None,None,,,,aff4:/hunts/H:D350C1F9,,,,,,,,,,,,,,,SCONE,com.google.android.apps.scone,1.3.1,7,28,28,UNDEFINED,1,10025,,2009-01-01 08:00:00,2009-01-01 08:00:00,UNSPECIFIED,/system/priv-app/SCONE/SCONE.apk,/data/user/0/com.google.android.apps.scone
aff4:/C.877c69c01bceb8ef,,,None,,,,,,2022-12-27 23:30:37,None,None,,,,aff4:/hunts/H:D350C1F9,,,,,,,,,,,,,,,Device Health Services,com.google.android.apps.turbo,1.4.0.197736970,10205285,26,25,UNDEFINED,1,10054,,2009-01-01 08:00:00,2009-01-01 08:00:00,UNSPECIFIED,/system/priv-app/TurboPrebuilt/TurboPrebuilt.apk,/data/user/0/com.google.android.apps.turbo
aff4:/C.877c69c01bceb8ef,,,None,,,,,,2022-12-27 23:30:37,None,None,,,,aff4:/hunts/H:D350C1F9,,,,,,,,,,,,,,,Tethering Entitlement,com.google.android.tetheringentitlement,2.3,103,26,28,UNDEFINED,1,10063,,2009-01-01 08:00:00,2009-01-01 08:00:00,UNSPECIFIED,/system/priv-app/TetheringEntitlement/TetheringEntitlement.apk,/data/user/0/com.google.android.tetheringentitlement
aff4:/C.877c69c01bceb8ef,,,None,,,,,,2022-12-27 23:30:37,None,None,,,,aff4:/hunts/H:D350C1F9,,,,,,,,,,,,,,,Carrier Provisioning Service,com.android.omadm.service,1.0.0,1,19,23,UNDEFINED,0,10058,com.android.uid.omadm.service,2009-01-01 08:00:00,2009-01-01 08:00:00,UNSPECIFIED,/system/priv-app/DMService/DMService.apk,/data/user/0/com.android.omadm.service
aff4:/C.877c69c01bceb8ef,,,None,,,,,,2022-12-27 23:30:37,None,None,,,,aff4:/hunts/H:D350C1F9,,,,,,,,,,,,,,,com.android.cts.ctsshim,com.android.cts.ctsshim,8.1.0-4396705,27,24,24,UNDEFINED,1,10093,,2009-01-01 08:00:00,2009-01-01 08:00:00,UNSPECIFIED,/system/app/CtsShimPrebuilt/CtsShimPrebuilt.apk,/data/user/0/com.android.cts.ctsshim
aff4:/C.877c69c01bceb8ef,,,None,,,,,,2022-12-27 23:30:37,None,None,,,,aff4:/hunts/H:D350C1F9,,,,,,,,,,,,,,,Hidden Menu,com.google.android.hiddenmenu,1.0,1,23,28,UNDEFINED,0,1000,android.uid.system,2009-01-01 08:00:00,2009-01-01 08:00:00,UNSPECIFIED,/system/priv-app/SprintHM/SprintHM.apk,/data/user/0/com.google.android.hiddenmenu
aff4:/C.877c69c01bceb8ef,,,None,,,,,,2022-12-27 23:30:37,None,None,,,,aff4:/hunts/H:D350C1F9,,,,,,,,,,,,,,,Secure UI Service,com.qualcomm.qti.services.secureui,1.0,1,14,28,UNDEFINED,1,10138,,2009-01-01 08:00:00,2009-01-01 08:00:00,UNSPECIFIED,/system/product/app/com.qualcomm.qti.services.secureui/com.qualcomm.qti.services.secureui.apk,/data/user/0/com.qualcomm.qti.services.secureui
aff4:/C.877c69c01bceb8ef,,,None,,,,,,2022-12-27 23:30:37,None,None,,,,aff4:/hunts/H:D350C1F9,,,,,,,,,,,,,,,VpnDialogs,com.android.vpndialogs,9,28,28,28,UNDEFINED,1,10041,,2009-01-01 08:00:00,2009-01-01 08:00:00,UNSPECIFIED,/system/priv-app/VpnDialogs/VpnDialogs.apk,/data/user/0/com.android.vpndialogs
aff4:/C.877c69c01bceb8ef,,,None,,,,,,2022-12-27 23:30:37,None,None,,,,aff4:/hunts/H:D350C1F9,,,,,,,,,,,,,,,Wallpapers,com.google.android.apps.wallpaper,9-4853370,170000002,26,27,UNDEFINED,1,10067,,2009-01-01 08:00:00,2009-01-01 08:00:00,UNSPECIFIED,/system/priv-app/WallpaperPickerGooglePrebuilt/WallpaperPickerGooglePrebuilt.apk,/data/user/0/com.google.android.apps.wallpaper
aff4:/C.877c69c01bceb8ef,,,None,,,,,,2022-12-27 23:30:37,None,None,,,,aff4:/hunts/H:D350C1F9,,,,,,,,,,,,,,,Phone Services,com.android.phone,9,28,23,26,UNDEFINED,1,1001,android.uid.phone,2009-01-01 08:00:00,2009-01-01 08:00:00,UNSPECIFIED,/system/priv-app/TeleService/TeleService.apk,/data/user_de/0/com.android.phone
aff4:/C.877c69c01bceb8ef,,,None,,,,,,2022-12-27 23:30:37,None,None,,,,aff4:/hunts/H:D350C1F9,,,,,,,,,,,,,,,Shell,com.android.shell,9,28,28,28,UNDEFINED,1,2000,android.uid.shell,2009-01-01 08:00:00,2009-01-01 08:00:00,UNSPECIFIED,/system/priv-app/Shell/Shell.apk,/data/user_de/0/com.android.shell
aff4:/C.877c69c01bceb8ef,,,None,,,,,,2022-12-27 23:30:37,None,None,,,,aff4:/hunts/H:D350C1F9,,,,,,,,,,,,,,,com.android.wallpaperbackup,com.android.wallpaperbackup,9,28,28,28,UNDEFINED,1,1000,android.uid.system,2009-01-01 08:00:00,2009-01-01 08:00:00,UNSPECIFIED,/system/app/WallpaperBackup/WallpaperBackup.apk,/data/user/0/com.android.wallpaperbackup
aff4:/C.877c69c01bceb8ef,,,None,,,,,,2022-12-27 23:30:37,None,None,,,,aff4:/hunts/H:D350C1F9,,,,,,,,,,,,,,,Blocked Numbers Storage,com.android.providers.blockednumber,9,28,28,28,UNDEFINED,1,10031,android.uid.shared,2009-01-01 08:00:00,2009-01-01 08:00:00,UNSPECIFIED,/system/priv-app/BlockedNumberProvider/BlockedNumberProvider.apk,/data/user_de/0/com.android.providers.blockednumber
aff4:/C.877c69c01bceb8ef,,,None,,,,,,2022-12-27 23:30:37,None,None,,,,aff4:/hunts/H:D350C1F9,,,,,,,,,,,,,,,User Dictionary,com.android.providers.userdictionary,9,28,28,28,UNDEFINED,1,10031,android.uid.shared,2009-01-01 08:00:00,2009-01-01 08:00:00,UNSPECIFIED,/system/priv-app/UserDictionaryProvider/UserDictionaryProvider.apk,/data/user/0/com.android.providers.userdictionary
aff4:/C.877c69c01bceb8ef,,,None,,,,,,2022-12-27 23:30:37,None,None,,,,aff4:/hunts/H:D350C1F9,,,,,,,,,,,,,,,Playground,com.google.vr.apps.ornament,2.12.220912006,220912006,28,33,UNDEFINED,1,10077,,2009-01-01 08:00:00,2022-11-29 20:34:01,UNSPECIFIED,/data/app/com.google.vr.apps.ornament-yoV9rzGZ_lHWiW_tsIfxxw==/base.apk,/data/user/0/com.google.vr.apps.ornament
aff4:/C.877c69c01bceb8ef,,,None,,,,,,2022-12-27 23:30:37,None,None,,,,aff4:/hunts/H:D350C1F9,,,,,,,,,,,,,,,Emergency information,com.android.emergency,9,28,28,28,UNDEFINED,1,10018,com.android.emergency.uid,2009-01-01 08:00:00,2009-01-01 08:00:00,UNSPECIFIED,/system/priv-app/EmergencyInfo/EmergencyInfo.apk,/data/user_de/0/com.android.emergency
aff4:/C.877c69c01bceb8ef,,,None,,,,,,2022-12-27 23:30:37,None,None,,,,aff4:/hunts/H:D350C1F9,,,,,,,,,,,,,,,Fused Location,com.android.location.fused,9,28,28,28,UNDEFINED,1,1000,android.uid.system,2009-01-01 08:00:00,2009-01-01 08:00:00,UNSPECIFIED,/system/priv-app/FusedLocation/FusedLocation.apk,/data/user_de/0/com.android.location.fused
aff4:/C.877c69c01bceb8ef,,,None,,,,,,2022-12-27 23:30:37,None,None,,,,aff4:/hunts/H:D350C1F9,,,,,,,,,,,,,,,System UI,com.android.systemui,9,28,28,28,UNDEFINED,1,10016,android.uid.systemui,2009-01-01 08:00:00,2009-01-01 08:00:00,UNSPECIFIED,/system/priv-app/SystemUIGoogle/SystemUIGoogle.apk,/data/user_de/0/com.android.systemui
aff4:/C.877c69c01bceb8ef,,,None,,,,,,2022-12-27 23:30:37,None,None,,,,aff4:/hunts/H:D350C1F9,,,,,,,,,,,,,,,com.google.android.hardwareinfo,com.google.android.hardwareinfo,1.0.0,1,24,27,UNDEFINED,1,10059,,2009-01-01 08:00:00,2009-01-01 08:00:00,UNSPECIFIED,/system/priv-app/HardwareInfo/HardwareInfo.apk,/data/user/0/com.google.android.hardwareinfo
aff4:/C.877c69c01bceb8ef,,,None,,,,,,2022-12-27 23:30:37,None,None,,,,aff4:/hunts/H:D350C1F9,,,,,,,,,,,,,,,Bluetooth MIDI Service,com.android.bluetoothmidiservice,9,28,28,28,UNDEFINED,1,10086,,2009-01-01 08:00:00,2009-01-01 08:00:00,UNSPECIFIED,/system/app/BluetoothMidiService/BluetoothMidiService.apk,/data/user/0/com.android.bluetoothmidiservice
aff4:/C.877c69c01bceb8ef,,,None,,,,,,2022-12-27 23:30:37,None,None,,,,aff4:/hunts/H:D350C1F9,,,,,,,,,,,,,,,ConfDialer,com.qualcomm.qti.confdialer,9,28,28,28,UNDEFINED,1,1001,android.uid.phone,2009-01-01 08:00:00,2009-01-01 08:00:00,UNSPECIFIED,/system/app/ConferenceDialer/ConferenceDialer.apk,/data/user/0/com.qualcomm.qti.confdialer
aff4:/C.877c69c01bceb8ef,,,None,,,,,,2022-12-27 23:30:37,None,None,,,,aff4:/hunts/H:D350C1F9,,,,,,,,,,,,,,,Google Time Zone Data,com.google.android.timezone.data,"002.001,2018i,r1",21000040,28,28,UNDEFINED,1,10007,,2009-01-01 08:00:00,2009-01-01 08:00:00,UNSPECIFIED,/system/priv-app/TimeZoneDataPrebuilt/TimeZoneDataPrebuilt.apk,/data/user/0/com.google.android.timezone.data
aff4:/C.877c69c01bceb8ef,,,None,,,,,,2022-12-27 23:30:37,None,None,,,,aff4:/hunts/H:D350C1F9,,,,,,,,,,,,,,,LTE Broadcast Manager,com.qti.ltebc,MSDC_LA_5.0.02.08.0,5002080,27,28,UNDEFINED,1,10122,,2009-01-01 08:00:00,2009-01-01 08:00:00,UNSPECIFIED,/system/app/QAS_DVC_MSP/QAS_DVC_MSP.apk,/data/user/0/com.qti.ltebc
aff4:/C.877c69c01bceb8ef,,,None,,,,,,2022-12-27 23:30:37,None,None,,,,aff4:/hunts/H:D350C1F9,,,,,,,,,,,,,,,System Tracing,com.android.traceur,1.0,2,26,26,UNDEFINED,1,10130,,2009-01-01 08:00:00,2009-01-01 08:00:00,UNSPECIFIED,/system/app/Traceur/Traceur.apk,/data/user/0/com.android.traceur
aff4:/C.877c69c01bceb8ef,,,None,,,,,,2022-12-27 23:30:37,None,None,,,,aff4:/hunts/H:D350C1F9,,,,,,,,,,,,,,,Google Support Services,com.google.android.apps.helprtc,3.21.1,1348,21,33,PRODUCTIVITY,1,10069,,2009-01-01 08:00:00,2022-11-29 20:44:00,UNSPECIFIED,/data/app/com.google.android.apps.helprtc-oX-BgTnMrVlG4WukDcEj1w==/base.apk,/data/user/0/com.google.android.apps.helprtc
aff4:/C.877c69c01bceb8ef,,,None,,,,,,2022-12-27 23:30:37,None,None,,,,aff4:/hunts/H:D350C1F9,,,,,,,,,,,,,,,vzw_msdc_api,qualcomm.com.vzw_msdc_api,MSDC_LA_4.2.01.11.0-vzw,42010110,19,26,UNDEFINED,0,10120,,2009-01-01 08:00:00,2009-01-01 08:00:00,UNSPECIFIED,/system/app/vzw_msdc_api/vzw_msdc_api.apk,/data/user/0/qualcomm.com.vzw_msdc_api
aff4:/C.877c69c01bceb8ef,,,None,,,,,,2022-12-27 23:30:37,None,None,,,,aff4:/hunts/H:D350C1F9,,,,,,,,,,,,,,,Google Connectivity Services,com.google.android.apps.gcs,F.3.0.02 (5125985),3002,22,28,UNDEFINED,1,10071,,2009-01-01 08:00:00,2009-01-01 08:00:00,UNSPECIFIED,/system/priv-app/GCS/GCS.apk,/data/user/0/com.google.android.apps.gcs
aff4:/C.877c69c01bceb8ef,,,None,,,,,,2022-12-27 23:30:37,None,None,,,,aff4:/hunts/H:D350C1F9,,,,,,,,,,,,,,,UI Automation,org.nexus_lab.relf.testload,1.0,1,21,28,UNDEFINED,1,10145,,2022-12-27 22:42:49,2022-12-27 22:42:49,UNSPECIFIED,/data/app/org.nexus_lab.relf.testload-XJ9cfrizgSD2-z6z_cRXCg==/base.apk,/data/user/0/org.nexus_lab.relf.testload
aff4:/C.877c69c01bceb8ef,,,None,,,,,,2022-12-27 23:30:37,None,None,,,,aff4:/hunts/H:D350C1F9,,,,,,,,,,,,,,,Bluetooth,com.android.bluetooth,9,28,28,28,UNDEFINED,1,1002,android.uid.bluetooth,2009-01-01 08:00:00,2009-01-01 08:00:00,UNSPECIFIED,/system/app/Bluetooth/Bluetooth.apk,/data/user_de/0/com.android.bluetooth
aff4:/C.877c69c01bceb8ef,,,None,,,,,,2022-12-27 23:30:37,None,None,,,,aff4:/hunts/H:D350C1F9,,,,,,,,,,,,,,,com.qualcomm.timeservice,com.qualcomm.timeservice,9,28,28,28,UNDEFINED,1,10135,,2009-01-01 08:00:00,2009-01-01 08:00:00,UNSPECIFIED,/vendor/app/TimeService/TimeService.apk,/data/user/0/com.qualcomm.timeservice
aff4:/C.877c69c01bceb8ef,,,None,,,,,,2022-12-27 23:30:37,None,None,,,,aff4:/hunts/H:D350C1F9,,,,,,,,,,,,,,,com.google.vr.apps.ornament.content.stickers.fujisan,com.google.vr.apps.ornament.content.stickers.fujisan,0.1,180521004,24,27,UNDEFINED,1,10119,,2009-01-01 08:00:00,2009-01-01 08:00:00,UNSPECIFIED,/system/app/StickersJapan/StickersJapan.apk,/data/user/0/com.google.vr.apps.ornament.content.stickers.fujisan
aff4:/C.877c69c01bceb8ef,,,None,,,,,,2022-12-27 23:30:37,None,None,,,,aff4:/hunts/H:D350C1F9,,,,,,,,,,,,,,,com.qualcomm.embms,com.qualcomm.embms,1.0,1,10,27,UNDEFINED,1,10075,,2009-01-01 08:00:00,2009-01-01 08:00:00,UNSPECIFIED,/system/app/embms/embms.apk,/data/user/0/com.qualcomm.embms
aff4:/C.877c69c01bceb8ef,,,None,,,,,,2022-12-27 23:30:37,None,None,,,,aff4:/hunts/H:D350C1F9,,,,,,,,,,,,,,,Contacts Storage,com.android.providers.contacts,9,28,28,28,UNDEFINED,1,10031,android.uid.shared,2009-01-01 08:00:00,2009-01-01 08:00:00,UNSPECIFIED,/system/priv-app/ContactsProvider/ContactsProvider.apk,/data/user/0/com.android.providers.contacts
aff4:/C.877c69c01bceb8ef,,,None,,,,,,2022-12-27 23:30:37,None,None,,,,aff4:/hunts/H:D350C1F9,,,,,,,,,,,,,,,CaptivePortalLogin,com.android.captiveportallogin,9,28,28,28,UNDEFINED,1,10100,,2009-01-01 08:00:00,2009-01-01 08:00:00,UNSPECIFIED,/system/app/CaptivePortalLogin/CaptivePortalLogin.apk,/data/user/0/com.android.captiveportallogin
aff4:/C.877c69c01bceb8ef,,,None,,,,,,2022-12-27 23:30:37,None,None,,,,aff4:/hunts/H:D350C1F9,,,,,,,,,,,,,,,Camera,com.google.android.GoogleCamera,6.2.031.259661660,49456930,28,28,IMAGE,1,10115,,2009-01-01 08:00:00,2022-11-29 03:10:43,UNSPECIFIED,/data/app/com.google.android.GoogleCamera-obDxqXWKEHgWgidx9J5Ppw==/base.apk,/data/user/0/com.google.android.GoogleCamera
aff4:/C.877c69c01bceb8ef,,,None,,,,,,2022-12-27 23:30:37,None,None,,,,aff4:/hunts/H:D350C1F9,,,,,,,,,,,,,,,com.android.connectivity.metrics.App,com.android.connectivity.metrics,2.0,2,23,26,UNDEFINED,1,10034,,2009-01-01 08:00:00,2009-01-01 08:00:00,UNSPECIFIED,/system/priv-app/ConnMetrics/ConnMetrics.apk,/data/user/0/com.android.connectivity.metrics
aff4:/C.877c69c01bceb8ef,,,None,,,,,,2022-12-27 23:30:37,None,None,,,,aff4:/hunts/H:D350C1F9,,,,,,,,,,,,,,,com.verizon.llkagent,com.verizon.llkagent,9,28,25,28,UNDEFINED,0,10056,,2009-01-01 08:00:00,2009-01-01 08:00:00,UNSPECIFIED,/system/priv-app/LLKAgent/LLKAgent.apk,/data/user/0/com.verizon.llkagent
aff4:/C.877c69c01bceb8ef,,,None,,,,,,2022-12-27 23:30:37,None,None,,,,aff4:/hunts/H:D350C1F9,,,,,,,,,,,,,,,Vzw OMA Trigger,com.android.vzwomatrigger,9,28,28,28,UNDEFINED,0,10065,,2009-01-01 08:00:00,2009-01-01 08:00:00,UNSPECIFIED,/system/priv-app/VzwOmaTrigger/VzwOmaTrigger.apk,/data/user/0/com.android.vzwomatrigger
aff4:/C.877c69c01bceb8ef,,,None,,,,,,2022-12-27 23:30:37,None,None,,,,aff4:/hunts/H:D350C1F9,,,,,,,,,,,,,,,Gboard,com.google.android.inputmethod.latin,12.3.04.475639976-release-arm64-v8a,96805922,23,33,PRODUCTIVITY,1,10134,,2009-01-01 08:00:00,2022-11-28 09:45:31,UNSPECIFIED,/data/app/com.google.android.inputmethod.latin-hkRijBMTEUAtJHi9psK0xw==/base.apk,/data/user/0/com.google.android.inputmethod.latin
aff4:/C.877c69c01bceb8ef,,,None,,,,,,2022-12-27 23:30:37,None,None,,,,aff4:/hunts/H:D350C1F9,,,,,,,,,,,,,,,Smart Storage,com.google.android.storagemanager,9,28,24,28,UNDEFINED,1,10021,,2009-01-01 08:00:00,2009-01-01 08:00:00,UNSPECIFIED,/system/priv-app/StorageManagerGoogle/StorageManagerGoogle.apk,/data/user/0/com.google.android.storagemanager
