metadata.client_urn,metadata.hostname,metadata.os,metadata.client_age,metadata.uname,metadata.os_release,metadata.os_version,metadata.usernames,metadata.mac_address,metadata.timestamp,metadata.original_timestamp,metadata.deprecated_session_id,metadata.labels,metadata.system_labels,metadata.user_labels,metadata.source_urn,metadata.annotations,metadata.hardware_info.serial_number,metadata.hardware_info.system_manufacturer,metadata.hardware_info.system_product_name,metadata.hardware_info.system_uuid,metadata.hardware_info.system_sku_number,metadata.hardware_info.system_family,metadata.hardware_info.bios_vendor,metadata.hardware_info.bios_version,metadata.hardware_info.bios_release_date,metadata.hardware_info.bios_rom_size,metadata.hardware_info.bios_revision,metadata.hardware_info.system_assettag,metadata.kernel_version,type,messageBox,threadId,status,dateReceived,dateSent,subject,isRead,isSeen,isLocked,creator
aff4:/C.877c69c01bceb8ef,,,None,,,,,,2022-12-27 23:30:37,None,None,,,,aff4:/hunts/H:D350C1F9,,,,,,,,,,,,,,,SMS,MESSAGE_BOX_INBOX,3,-1,54859-02-16 06:09:49,54856-09-30 21:53:20,,0,1,0,
aff4:/C.877c69c01bceb8ef,,,None,,,,,,2022-12-27 23:30:37,None,None,,,,aff4:/hunts/H:D350C1F9,,,,,,,,,,,,,,,SMS,MESSAGE_BOX_INBOX,4,-1,54859-03-19 09:21:32,54859-03-19 08:50:00,,0,1,0,
aff4:/C.877c69c01bceb8ef,,,None,,,,,,2022-12-27 23:30:37,None,None,,,,aff4:/hunts/H:D350C1F9,,,,,,,,,,,,,,,SMS,MESSAGE_BOX_INBOX,4,-1,54859-07-01 19:51:39,54859-07-01 18:56:40,,0,1,0,
aff4:/C.877c69c01bceb8ef,,,None,,,,,,2022-12-27 23:30:37,None,None,,,,aff4:/hunts/H:D350C1F9,,,,,,,,,,,,,,,SMS,MESSAGE_BOX_INBOX,5,-1,54878-03-24 21:02:02,54878-03-24 23:16:40,,1,1,0,
aff4:/C.877c69c01bceb8ef,,,None,,,,,,2022-12-27 23:30:37,None,None,,,,aff4:/hunts/H:D350C1F9,,,,,,,,,,,,,,,SMS,MESSAGE_BOX_INBOX,5,-1,54878-03-25 08:45:41,54878-03-25 06:13:20,,1,1,0,
