name,cpu_plain,mem_plain,crash_plain,cpu_vapponly,mem_vapponly,crash_vapponly,cpu_vappfrida,mem_vappfrida,crash_vappfrida
com.dropbox.android,19.386666666666663,4.909523809523817,False,5.828907766990292,1.8815533980582548,True,None,None,False
com.dropbox.android,20.969696969696958,4.500757575757583,False,None,None,True,None,None,False
com.dropbox.android,16.61621621621622,4.16216216216216,False,6.654150485436894,1.695024271844662,True,9.028214774281805,1.8044801641586847,True
com.dropbox.android,18.47966101694918,4.710169491525431,False,5.038834951456311,1.6968325242718463,True,4.523749843338765,1.7727660107782914,True
com.dropbox.android,14.222115384615382,4.694230769230765,False,6.094117647058823,1.6966988586479386,True,4.6440124956612285,1.694359597362029,True
com.facebook.katana,38.36962025316456,4.586075949367086,False,70.3073633156966,6.2643298059964705,False,84.70004409171071,7.136948853615528,False
com.facebook.katana,12.213725490196078,3.5235294117647085,False,44.83732633528869,5.644458166100648,False,131.66583333333332,6.0760000000000005,False
com.facebook.katana,6.568571428571427,4.029523809523815,False,36.14282226151387,6.143521091184638,False,73.54255319148938,7.410672614962261,False
com.facebook.katana,6.480519480519481,3.9207792207792176,False,53.64183734939762,5.691927710843371,False,84.73815015829942,7.247761194029858,False
com.facebook.katana,5.153246753246754,3.8727272727272717,False,70.9808041958042,4.545174825174825,False,78.45274261603375,7.3049382716049465,False
com.facebook.lite,2.164077669902913,2.496116504854365,False,5.35904761904762,4.620228937728941,False,9.540659340659339,4.8538461538461615,False
com.facebook.lite,3.742857142857143,2.7740259740259767,False,11.767218435572865,4.361148977604675,False,6.140097680097679,4.857509157509159,False
com.facebook.lite,None,None,True,6.898749266001173,4.540082207868468,False,6.063176746917205,4.772219612448623,False
com.facebook.lite,3.202597402597403,2.7519480519480553,True,5.092413793103448,4.499999999999996,False,15.369176470588236,4.299254901960786,False
com.facebook.lite,2.1097902097902095,2.7293706293706363,True,6.815068493150683,4.497260273972598,False,11.428205128205128,4.6384615384615415,False
com.facebook.orca,11.233103448275868,4.349655172413794,False,35.553465982028236,4.033376123234915,False,15.613204508856688,6.82262479871177,False
com.facebook.orca,9.260784313725491,3.45294117647059,False,74.58132220795893,4.0450577663671385,False,57.55781147000659,4.083981542518128,False
com.facebook.orca,6.601282051282049,3.7128205128205147,False,43.00480769230769,4.888598901098904,False,61.035860250494395,4.127356624917602,False
com.facebook.orca,6.4641025641025625,3.6153846153846163,False,65.9013843111404,4.030323005932763,False,46.15075807514832,4.0888595912986165,False
com.facebook.orca,6.935064935064934,3.648051948051949,False,55.26809492419247,4.118721160184574,False,18.979176060668173,6.441203798592597,False
com.google.android.apps.books,8.656756756756756,3.8756756756756756,False,1.0657290470723306,1.7774971297359368,True,4.03858064516129,1.6670967741935478,True
com.google.android.apps.books,6.6235294117647046,3.9274509803921593,False,1.0336887534907337,1.629068291444531,True,0.9807537912578055,1.651204281891166,True
com.google.android.apps.books,6.566666666666667,3.8444444444444406,False,0.718578497525866,1.6553025191183064,True,2.394227994227994,1.6525252525252543,True
com.google.android.apps.books,3.167521367521368,3.895726495726501,False,1.6717948717948719,1.596591251885371,True,3.935076923076923,1.6213846153846168,True
com.google.android.apps.books,7.6640625,3.918750000000005,False,0.948025641025641,1.632256410256412,True,0.6874545454545454,1.6320909090909108,True
com.google.android.apps.googleassistant,0.3418803418803419,1.2957264957264971,False,0.11512605042016806,4.164136162939756,False,0.45884493670886073,4.492500000000007,False
com.google.android.apps.googleassistant,0.0,1.2486842105263143,False,2.4335096153846156,3.8754086538461525,False,0.5902450980392157,4.168676470588237,False
com.google.android.apps.googleassistant,0.09930069930069929,1.2720279720279741,False,0.09164169164169164,3.7539627039627046,False,0.29192380124583517,4.129182963928718,False
com.google.android.apps.googleassistant,0.15213675213675215,1.2666666666666666,False,2.286309523809524,3.7454861111111146,False,0.7563025210084033,4.1038313630536924,False
com.google.android.apps.googleassistant,0.47792207792207786,1.2467532467532452,False,5.112731152204836,3.5796586059743944,False,0.2843315018315018,4.096547619047612,False
com.google.android.apps.maps,42.976923076923065,6.3123076923076935,False,1.3056603773584907,4.484905660377362,False,16.705000000000002,2.227611386138616,True
com.google.android.apps.maps,38.78227848101265,6.29240506329114,False,0.09719626168224299,4.266060920733818,False,17.55357142857143,2.0645700071073225,True
com.google.android.apps.maps,45.0620253164557,6.007594936708861,False,0.08684210526315789,3.710789473684211,False,10.488888888888889,1.9486993682645857,True
com.google.android.apps.maps,57.43653846153847,5.80769230769231,False,0.7067796610169492,4.3100282485875665,False,10.947413793103449,1.9489130434782609,True
com.google.android.apps.maps,54.71538461538463,6.026923076923075,False,1.2794871794871794,3.8890556597873713,False,10.84957264957265,1.946989966555184,True
com.google.android.apps.messaging,7.845555555555555,6.344444444444437,False,0.07447882378757956,4.371121351766516,True,6.555849514563107,1.9332888349514588,True
com.google.android.apps.messaging,4.006593406593407,4.336263736263733,False,5.919013157894737,2.81467105263158,True,0.04928571428571429,2.7279761904761886,True
com.google.android.apps.messaging,3.6621359223300964,5.079611650485448,False,6.2971973762671425,3.9655038759689942,True,0.10923076923076923,2.5962753036437256,True
com.google.android.apps.messaging,2.0440559440559447,5.4839160839161005,False,4.407813852813852,4.750649350649348,True,0.8089655172413793,2.1751724137931077,True
com.google.android.apps.messaging,1.0578947368421052,5.063157894736832,False,5.708086956521739,4.2703478260869545,True,0.02147239263803681,2.1130461052240155,True
com.google.android.apps.nbu.files,4.7423076923076914,4.564102564102559,False,8.213206693803707,5.9813093622795055,False,15.530000000000003,6.5875524475524445,False
com.google.android.apps.nbu.files,1.2674242424242426,4.547727272727272,False,9.293216783216785,6.055944055944062,False,12.477564102564102,6.576698717948722,False
com.google.android.apps.nbu.files,5.4230769230769225,4.085897435897438,False,9.730866601752679,6.404024667315802,False,11.46125,6.56035256410256,False
com.google.android.apps.nbu.files,6.5984375,4.445312499999999,False,5.282598870056496,6.296511299435036,False,9.791241162608015,6.394400179553369,False
com.google.android.apps.nbu.files,4.737500000000001,4.220833333333334,False,23.145666666666667,4.4755,False,17.924287974683544,6.013908227848097,False
com.google.android.apps.photos,5.9719999999999995,3.872,False,0.0,3.6800000000000006,False,0.8365384615384616,2.6561538461538476,False
com.google.android.apps.photos,3.1718750000000004,3.7781249999999975,False,0.16849315068493148,2.0197619582304114,False,0.051515151515151514,2.309090909090911,False
com.google.android.apps.photos,2.5506493506493513,3.710389610389612,False,0.1858695652173913,2.095923913043478,False,0.07819548872180451,1.9812850307587115,False
com.google.android.apps.photos,4.384415584415585,3.6961038961038994,False,0.6256410256410256,2.81125703564728,False,0.026515151515151516,1.9042279078207185,False
com.google.android.apps.photos,2.298701298701299,3.712987012987014,False,0.7075342465753425,1.961643835616434,False,0.17215189873417722,2.1922434688930803,False
com.google.android.apps.searchlite,3.7859375,2.635937500000001,False,3.7647945688591076,5.1544348439428775,False,3.201694425167707,5.541209808003713,False
com.google.android.apps.searchlite,2.964335664335664,3.5237762237762316,False,2.532075471698113,4.17029226785054,False,1.9724042159236577,5.133990884489381,False
com.google.android.apps.searchlite,5.192,3.4059999999999997,False,3.74838056680162,3.8927800269905544,False,2.824676560121766,5.216514459665157,False
com.google.android.apps.searchlite,1.501111111111111,3.058888888888884,False,1.4860759493670888,4.483905967450276,False,4.759000493177709,4.873845142199577,False
com.google.android.apps.searchlite,2.2818965517241376,3.376724137931034,False,1.9198076923076925,4.490352564102569,False,4.012280124938353,4.812214367910577,False
com.google.android.apps.subscriptions.red,2.314285714285714,4.069230769230775,False,2.716944136145024,4.239363669996299,False,9.543058545732341,5.085679561080633,False
com.google.android.apps.subscriptions.red,4.778472222222223,3.724305555555553,False,20.3449814986124,4.607839962997227,False,2.0548872180451125,4.594731102565564,False
com.google.android.apps.subscriptions.red,6.938,3.358,False,2.3361423650975888,3.962686567164181,False,4.409090909090909,4.28018648018648,False
com.google.android.apps.subscriptions.red,6.537362637362638,3.309890109890114,False,1.7201583362873687,4.180207964078935,False,2.4402695417789757,4.478616352201259,False
com.google.android.apps.subscriptions.red,5.315625,3.2281250000000026,False,2.9958806818181816,4.030018939393944,False,3.887272727272727,4.2013986013986,False
com.google.android.apps.translate,4.470512820512821,3.403846153846151,False,26.766666666666666,5.846516290726822,False,27.575824915824914,6.249764309764319,False
com.google.android.apps.translate,8.717647058823527,3.4705882352941204,False,33.07926022868164,5.505110896817741,False,54.30819147517668,5.676741188497271,False
com.google.android.apps.translate,6.066233766233765,3.2103896103896097,False,47.09841000308738,5.146804569311519,False,73.02738095238095,3.376190476190476,False
com.google.android.apps.translate,6.707792207792208,3.6961038961038963,False,39.32656222953088,5.589008135710577,False,88.54790494058786,4.1424640400250174,False
com.google.android.apps.translate,8.546153846153844,3.4413461538461503,False,28.289528362599995,5.729907143513826,False,72.34367132867132,4.894475524475528,False
com.google.android.apps.wellbeing,2.7828947368421053,3.389473684210522,False,1.4721611721611723,3.677938727938731,False,3.9557585825027686,4.60675526024363,False
com.google.android.apps.wellbeing,0.5693877551020408,2.9204081632653054,False,1.016883116883117,3.5220779220779193,False,0.03736263736263736,2.05957405426432,False
com.google.android.apps.wellbeing,5.2444444444444445,2.691666666666665,False,0.04358974358974359,3.411538461538462,False,None,None,False
com.google.android.apps.wellbeing,3.7730158730158734,3.176190476190476,False,1.112987012987013,3.4259740259740266,False,None,None,False
com.google.android.apps.wellbeing,0.9979591836734694,3.283673469387753,False,0.1109375,3.3921874999999995,False,None,None,False
com.google.android.apps.youtube.music,50.30769230769234,5.812307692307699,False,17.260945033751206,5.606543601046973,False,23.781561085972847,5.2960407239819,False
com.google.android.apps.youtube.music,44.5474358974359,5.414102564102562,False,23.06882352941177,4.880429864253396,False,24.454843304843305,5.325688509021841,False
com.google.android.apps.youtube.music,45.99692307692309,5.044615384615382,False,25.95108932461873,4.460348583877996,False,24.84927601809955,5.061312217194569,False
com.google.android.apps.youtube.music,51.4177215189873,5.399999999999996,False,41.103571428571435,3.045,False,29.719389978213506,4.821132897603483,False
com.google.android.apps.youtube.music,47.64557823129251,5.496598639455794,False,17.491350114416484,5.184794050343251,False,31.1364705882353,5.065203619909498,False
com.google.android.calculator,0.8046874999999999,2.181250000000001,False,3.2266666666666683,4.562217514124298,False,4.551991019732955,4.780928748670689,False
com.google.android.calculator,2.335877862595421,2.4511450381679354,False,5.6982007575757585,4.080823863636365,False,8.771333333333336,3.3163333333333336,False
com.google.android.calculator,6.483333333333334,1.9624999999999995,False,4.766826923076925,4.216682692307689,False,3.8294222654982173,4.4736286919831185,False
com.google.android.calculator,4.6513513513513525,2.08108108108108,False,4.6169230769230785,4.118461538461543,False,10.26543385490754,4.016856330014225,False
com.google.android.calculator,0.5254901960784314,2.1078431372549016,False,2.5911392405063305,4.1518987341772196,False,4.433950016228499,4.550681596884122,False
com.google.android.calendar,2.874603174603175,3.455555555555552,False,3.708481140547822,4.880135832959135,False,3.4893303571428573,4.010714285714286,False
com.google.android.calendar,1.6513513513513511,3.1189189189189186,False,0.8705734767025088,4.297060931899644,False,0.8873931623931623,4.6226923076923105,False
com.google.android.calendar,3.772222222222221,3.488888888888882,False,1.071525974025974,4.1360389610389605,False,2.296052631578948,4.947368421052637,False
com.google.android.calendar,2.1714285714285717,3.3831168831168803,False,4.366112266112266,3.648995148995148,False,1.3191666666666666,4.786025641025635,False
com.google.android.calendar,5.992063492063492,3.392063492063489,False,2.2280337941628265,4.744393241167433,False,1.8540548258138208,5.152408147725109,False
com.google.android.deskclock,0.8371794871794871,2.2679487179487157,False,3.7642469470827677,4.7923903211216725,False,4.379467176920812,4.011627906976747,True
com.google.android.deskclock,1.9703125,2.1484375000000027,False,3.0677841561423653,4.263949483352472,False,53.79170667830642,3.7580387021679016,True
com.google.android.deskclock,0.09448275862068965,2.1717241379310357,False,31.843240093240087,4.5907925407925445,False,13.464102564102564,4.5431739431739455,True
com.google.android.deskclock,0.6580952380952381,2.282857142857142,False,20.831772151898736,4.7089082278481005,False,55.6709310227659,4.749872579001014,True
com.google.android.deskclock,2.457142857142857,2.63896103896104,False,2.68343220338983,4.727443502824856,False,46.31263412945654,4.655875735548626,True
com.google.android.dialer,5.265625,3.348437499999997,False,12.055711639394875,5.08531954306885,False,29.981704260651632,4.068045112781954,False
com.google.android.dialer,0.04689655172413793,2.811034482758615,False,7.785751775239271,4.36017289286817,False,7.177626811594203,4.857382246376808,False
com.google.android.dialer,4.066,2.694000000000002,False,11.603288051867858,4.418709478234029,False,8.948780487804877,4.685967891324482,False
com.google.android.dialer,0.4686274509803922,2.658823529411767,False,12.530804195804198,4.0012237762237755,False,12.37226613965744,4.764953886693017,False
com.google.android.dialer,3.340625,2.740625000000003,False,10.32635072553257,4.499243593701766,False,9.453911849931371,4.721885008387981,False
com.google.android.gm,1.2894230769230772,4.547115384615383,False,1.4324358974358975,1.850641025641029,False,0.758974358974359,4.744871794871795,False
com.google.android.gm,4.054000000000001,4.291999999999999,False,1.4652884615384614,1.6355769230769248,False,1.1,4.6714336095926665,False
com.google.android.gm,2.1365384615384624,4.559615384615387,False,1.7044427897741377,1.6338173243981153,False,0.3339622641509434,4.510232220609581,False
com.google.android.gm,3.4406250000000003,4.378125000000002,False,1.3077438570364854,1.6398237776123126,False,0.08974358974358974,4.362618083670716,False
com.google.android.gm,1.515625,4.393749999999998,False,1.7449242988334572,1.631000248200548,False,0.15538461538461537,4.500000000000002,False
com.google.android.gms,12.444444444444445,4.0,False,0.30605124685426677,5.5288721116449295,False,0.8086364676275453,5.526721574010521,False
com.google.android.gms,0.7555555555555555,2.4,False,0.0673076923076923,5.267924528301886,False,0.0,5.323404255319142,False
com.google.android.gms,0.0,2.4,False,1.0315789473684212,5.220512820512822,False,0.03763440860215054,5.359139784946232,False
com.google.android.gms,0.37777777777777777,2.6,False,0.04625,5.3124999999999964,False,0.0,5.290909090909088,False
com.google.android.gms,1.4777777777777779,2.6555555555555554,False,2.2658227848101262,5.813797468354431,False,1.0315789473684212,5.220512820512822,False
com.google.android.ims,0.0,1.5,False,0.03804347826086957,3.313043478260872,False,0.1380952380952381,3.323809523809527,False
com.google.android.ims,0.0,1.5,False,0.05076923076923077,3.0923076923076938,False,0.0,3.1230769230769235,False
com.google.android.ims,0.0,1.5,False,0.57,3.0627450980392172,False,0.0,3.090625000000002,False
com.google.android.ims,0.0,1.5,False,0.08680387409200968,3.141176470588233,False,0.0,3.110256410256412,False
com.google.android.ims,0.0,1.5,False,1.2559322033898304,3.1499999999999977,False,0.07608695652173914,3.123913043478261,False
com.google.android.inputmethod.latin,0.0,2.6999999999999997,False,0.1076923076923077,2.4148977604673822,False,0.39367088607594936,2.3237341772151923,False
com.google.android.inputmethod.latin,None,None,False,0.06538461538461539,2.3916141235813377,False,1.873076923076923,2.149358974358976,False
com.google.android.inputmethod.latin,None,None,False,0.08354430379746836,2.136392405063293,False,0.0,1.9794315041452797,False
com.google.android.inputmethod.latin,None,None,False,0.11195652173913044,2.070366132723112,False,0.0,2.3916141235813377,False
com.google.android.inputmethod.latin,None,None,False,0.428,3.301230769230769,False,0.0,2.6878824969400252,False
com.google.android.play.games,61.391250000000014,4.847500000000001,False,5.847443181818182,4.8901988636363685,False,3.730805860805861,5.498342490842498,False
com.google.android.play.games,53.90759493670886,4.71645569620253,False,2.466436865021771,4.821389695210451,False,4.451856349757113,4.966551006245657,False
com.google.android.play.games,67.55384615384615,4.309615384615379,False,3.2409611778595733,4.895930272935622,False,5.786647727272727,4.834280303030303,False
com.google.android.play.games,46.04062500000002,4.365624999999996,False,3.874810606060606,4.511979166666666,False,2.7513698630136987,5.402035768645363,False
com.google.android.play.games,60.54303797468354,4.291139240506327,False,3.239126906848426,4.644514767932489,False,7.765246212121211,4.6727746212121195,False
com.google.android.tts,None,None,False,0.031132075471698113,2.001801029159523,False,0.2019717261904762,2.231622023809527,False
com.google.android.tts,None,None,False,None,None,False,0.04358974358974359,3.4102564102564106,False
com.google.android.tts,None,None,False,None,None,False,0.03238095238095238,3.433333333333334,False
com.google.android.tts,None,None,False,None,None,False,0.0,3.2874999999999996,False
com.google.android.tts,None,None,False,None,None,False,0.0,3.4102564102564106,False
com.google.android.videos,16.03736263736264,4.009890109890114,False,0.07717391304347826,1.9837331334332862,False,0.12065217391304348,1.9852173913043507,False
com.google.android.videos,1.003896103896104,3.83896103896104,False,0.4605263157894737,2.034736842105262,False,0.41025641025641024,1.8161433804290965,False
com.google.android.videos,0.7625000000000001,3.9451388888889003,False,0.23238095238095235,1.7810945273631829,False,0.5923076923076923,1.8413461538461555,False
com.google.android.videos,0.8938931297709924,3.8587786259541983,False,0.38307692307692304,1.8413461538461555,False,0.17974683544303796,1.8184965125290642,False
com.google.android.videos,1.765625,3.6796875000000018,False,0.20285714285714282,1.7831578947368407,False,0.4051282051282051,1.817425431711148,False
com.google.ar.lens,0.068,1.8239999999999998,False,3.536884469696969,4.105350378787881,False,5.283559577677225,4.199358974358973,False
com.google.ar.lens,0.778,1.6899999999999986,False,1.2641624198586223,3.8457997698504016,False,1.3983396350484958,4.1065921420351845,False
com.google.ar.lens,0.9421875,1.7093749999999983,False,2.2963800904977374,3.6127828054298643,False,1.3555663745537163,4.112869198312241,False
com.google.ar.lens,0.3796116504854369,1.7466019417475744,False,1.3672027972027974,4.029487179487177,False,1.0863996218834928,4.27567056599315,False
com.google.ar.lens,0.04415584415584416,1.7064935064935047,False,0.7391384180790961,4.005734463276832,False,1.7195627157652473,4.11178694722999,False
com.imo.android.imoim,4.93835616438355,4.27876712328766,False,69.725,2.7511538461538474,True,20.49939309056957,4.914519140989728,True
com.imo.android.imoim,3.5351648351648355,4.17472527472527,False,103.17025736820257,2.985429638854294,True,14.962611872146116,6.557497716894976,True
com.imo.android.imoim,6.436363636363632,3.402597402597405,False,103.65840932117527,3.0404255319148943,True,22.013598901098913,4.738598901098902,True
com.imo.android.imoim,2.631168831168833,3.73896103896104,False,100.7269054726368,2.9787263681592018,True,16.123956043956053,5.25516483516484,True
com.imo.android.imoim,2.6171052631578964,3.747368421052637,False,116.1067307692308,3.1264878542510113,True,14.069077757685346,5.64948764315853,True
com.instagram.android,7.260952380952372,3.8085714285714305,False,44.971996996997014,6.422322322322326,True,30.302094594594593,4.573986486486486,True
com.instagram.android,3.6769230769230776,3.602197802197802,False,47.51071428571428,4.8198879551820735,True,39.1750320924262,4.613350449293968,True
com.instagram.android,11.562162162162162,3.3837837837837825,False,27.06146341463416,6.043830703012912,True,13.184610917537757,6.197851335656213,True
com.instagram.android,12.77837837837838,3.264864864864863,False,34.83809523809524,4.594688644688646,True,17.108062884986726,6.229236002574247,True
com.instagram.android,2.221978021978024,3.394505494505496,False,47.47647783251234,5.886781609195405,True,18.732926829268315,5.685875270145103,True
com.kiloo.subwaysurf,47.25192307692308,9.250000000000007,False,33.923805700521875,6.456403050983544,False,26.96846950517836,4.647142309167628,False
com.kiloo.subwaysurf,46.31792452830192,9.903773584905641,False,14.244005805515236,2.7633671988388975,False,11.799899749373436,7.864649122807023,False
com.kiloo.subwaysurf,49.192499999999995,9.832499999999978,False,11.346938775510203,2.0817896389324964,False,26.47465003043213,4.3426962872793675,False
com.kiloo.subwaysurf,56.01578947368421,8.95789473684211,False,24.15651392632525,4.25453728661276,False,17.736858974358977,1.9705128205128215,False
com.kiloo.subwaysurf,56.10789473684209,8.992105263157901,False,36.20861111111109,6.684305555555553,False,40.27249042145593,8.964342273307803,False
com.king.candycrushsaga,54.079746835443004,8.112658227848105,False,49.207122093023266,7.976744186046513,False,45.63083929733248,6.449544567338975,False
com.king.candycrushsaga,56.53478260869566,7.836956521739126,False,44.90833333333335,7.025883838383839,False,45.93587076438139,9.359338061465733,False
com.king.candycrushsaga,41.65675675675677,7.227027027027023,False,40.02252665245205,8.788113006396586,False,27.75106100795756,6.208488063660481,False
com.king.candycrushsaga,40.94782608695657,7.777173913043485,False,40.072663551401845,8.343115821094791,False,30.357957559681704,6.267108753315653,False
com.king.candycrushsaga,38.064130434782626,7.818478260869572,False,13.08,1.8433333333333333,False,15.39757085020243,6.466970310391367,False
com.lenovo.anyshare.gps,6.111450381679387,4.647328244274809,False,56.8125925925926,4.196905615292713,True,46.01618828932262,3.0441446613088416,True
com.lenovo.anyshare.gps,8.501999999999999,4.898,False,36.109195402298845,3.2101935874168204,True,45.39311594202899,3.480864197530866,True
com.lenovo.anyshare.gps,7.6890624999999995,4.887499999999998,False,56.79095350669819,4.598140267927509,True,45.92819444444444,3.675833333333335,True
com.lenovo.anyshare.gps,1.4142857142857141,5.301587301587303,False,59.08173684210525,4.358315789473685,True,63.844473684210534,4.577315789473684,True
com.lenovo.anyshare.gps,6.68125,5.110937499999994,False,60.35999243713367,4.523520514274913,True,61.56360446570972,4.558639021796917,True
com.linkedin.android,2.293103448275863,4.36551724137931,False,2.8799730250481694,4.092913294797692,False,None,None,False
com.linkedin.android,2.875824175824176,3.823076923076923,False,2.999652096342551,2.374594112399644,False,2.7004690431519696,1.7841463414634136,False
com.linkedin.android,1.9435897435897438,3.8858974358974363,False,5.532348901098901,3.7531593406593435,False,None,None,False
com.linkedin.android,1.6582417582417583,3.905494505494509,False,5.880219780219781,3.6597527472527487,False,2.42493903221666,5.5198305737389175,False
com.linkedin.android,1.70989010989011,3.9406593406593364,False,None,None,False,3.6205652911249295,3.3322385528547174,False
com.microsoft.office.excel,2.1949152542372894,2.4974576271186435,False,4.769791666666669,4.6807518115942095,False,5.572060393472624,4.732469116974226,False
com.microsoft.office.excel,1.8046875000000007,1.9687499999999978,False,5.25217391304348,3.919843924191751,False,5.496709956709956,4.690606060606058,False
com.microsoft.office.excel,3.0064935064935088,2.0116883116883093,False,5.578983516483519,3.6100274725274737,False,6.252188500838801,4.348924813176763,False
com.microsoft.office.excel,3.0076335877862594,2.056488549618316,False,5.306557877077933,4.122540796095778,False,7.651716894977162,4.7621095890411,False
com.microsoft.office.excel,2.1252747252747266,2.1109890109890133,False,4.315463917525775,4.341004323245761,False,5.47005640345056,4.868867507188666,False
com.microsoft.office.powerpoint,2.4837837837837844,2.294594594594594,False,5.3438767729144425,4.552951044685075,False,5.465426262010065,4.771023333841695,False
com.microsoft.office.powerpoint,4.288235294117649,2.1078431372549016,False,3.920000000000002,3.941583054626533,False,4.890376696660058,4.50753393320116,False
com.microsoft.office.powerpoint,2.2271186440677977,2.1033898305084704,False,4.979596774193546,4.547311827956991,False,4.994621004566206,4.958054794520535,False
com.microsoft.office.powerpoint,1.8809523809523818,0.8142857142857141,False,4.577108433734941,4.168079914595088,False,4.437926421404683,4.17672240802676,False
com.microsoft.office.powerpoint,2.125,1.7500000000000007,False,5.975903614457834,4.195875810936052,False,5.019460118956841,4.411636419094102,False
com.microsoft.office.word,2.4796610169491538,2.529661016949148,False,4.705219780219783,3.890934065934066,False,6.844964473277724,4.689851714550509,False
com.microsoft.office.word,1.8078125000000003,2.0625000000000013,False,4.536754068716092,4.123673899939722,False,5.737944181790455,4.355192923593111,False
com.microsoft.office.word,2.5064102564102573,2.0871794871794864,False,7.0486666666666675,2.0893333333333324,False,4.95613847796248,4.348802806161359,False
com.microsoft.office.word,1.584375,2.0625000000000013,False,7.258579560856599,4.364333152615888,False,6.002332761578043,4.572144082332756,False
com.microsoft.office.word,2.1923076923076925,2.0871794871794864,False,7.123333333333333,2.1333333333333333,False,5.765777032179352,4.34759798688425,False
com.microsoft.skydrive,2.3438095238095245,4.077142857142864,False,6.7130120686724455,6.162366139724637,False,23.98059440559441,4.040326340326341,False
com.microsoft.skydrive,0.8799999999999999,3.928,False,4.6016025641025635,1.6060897435897445,True,7.247826086956521,1.9133333333333333,True
com.microsoft.skydrive,1.7415584415584415,3.977922077922076,False,4.489423076923077,1.6517628205128216,True,11.209090909090907,3.439952153110048,True
com.microsoft.skydrive,3.1560439560439555,3.82967032967033,False,7.827412280701754,1.6907894736842115,True,5.041666666666667,1.7317982456140342,True
com.microsoft.skydrive,3.5607843137254913,3.649019607843137,False,4.693910256410256,1.6060897435897445,True,6.927192982456141,1.7581140350877182,True
com.miui.calculator,0.1392156862745098,2.119607843137253,False,3.2908232118758436,3.7356275303643716,False,2.0075291375291378,4.539044289044294,False
com.miui.calculator,0.4228571428571428,2.1895238095238096,False,2.0538209095171123,4.079137365213315,False,1.609551282051282,4.31525641025641,False
com.miui.calculator,25.098717948717955,2.06923076923077,False,1.5821587151629664,4.28260273972603,False,3.26612685560054,3.949122807017546,False
com.miui.calculator,1.5423076923076924,1.82820512820513,False,1.6201395650762738,4.129259980525809,False,2.2079545454545455,4.399479166666663,False
com.miui.calculator,1.6168831168831168,1.8168831168831192,False,3.0076923076923077,3.9509426847662112,False,1.0771013354281227,4.625726630007845,False
com.miui.player,0.1304761904761905,3.1714285714285775,False,None,None,False,1.9749470899470898,1.916640211640215,True
com.miui.player,0.0945945945945946,2.675675675675676,False,0.4971196283391406,1.7490360046457631,True,2.4002397219225697,1.8779096248351925,True
com.miui.player,0.265625,2.8218749999999995,False,None,None,True,2.996886366943111,3.9889713371162525,True
com.miui.player,0.0846153846153846,2.8897435897435875,False,3.413968207241684,3.719531939947012,True,0.4990537634408602,3.935806451612901,True
com.miui.player,1.7838983050847457,2.9618644067796653,False,None,None,True,3.742566970856638,3.8992493376508657,True
com.miui.videoplayer,2.1065934065934067,2.827472527472529,False,7.525362318840578,5.743297101449273,False,12.721293199554069,5.55382385730212,False
com.miui.videoplayer,0.1131868131868132,2.547252747252742,False,3.335063330244053,5.258093914118012,False,6.431593406593406,4.665521978021982,False
com.miui.videoplayer,0.0,2.4098039215686264,False,2.1691689497716897,5.946849315068499,False,5.447802197802197,5.149450549450553,False
com.miui.videoplayer,0.2783783783783784,2.3729729729729745,False,2.648249192588815,5.648844127146018,False,5.158021978021979,5.185164835164839,False
com.miui.videoplayer,81.17000000000002,2.8762499999999998,False,15.840943396226413,6.094202401372211,False,4.591795028214123,5.469711758426111,False
com.mxtech.videoplayer.ad,9.562820512820512,5.388461538461532,False,44.41748737373738,2.1010101010101034,True,None,None,False
com.mxtech.videoplayer.ad,3.786813186813186,5.359340659340667,False,59.74264705882353,2.0856129619989567,True,None,None,False
com.mxtech.videoplayer.ad,5.539230769230769,5.748461538461533,False,62.774193548387096,2.0001825928180175,True,39.59016393442623,2.384317970924839,True
com.mxtech.videoplayer.ad,7.0328124999999995,5.582812499999993,False,72.91397849462365,2.449820788530465,True,29.382978723404257,2.8978723404255335,True
com.mxtech.videoplayer.ad,7.349350649350647,5.87792207792207,False,40.665319865319866,2.0112794612794596,True,56.636509683098595,2.9746478873239455,True
com.netflix.mediaclient,4.375,5.342187500000006,False,1.964271844660194,1.8213592233009734,True,3.7347946725860153,1.8137069922308557,True
com.netflix.mediaclient,2.4423076923076925,5.196153846153847,False,0.7547406203440334,1.6505214682378422,True,None,None,True
com.netflix.mediaclient,2.6364406779661014,5.071186440677969,False,0.654549561760188,1.643218577753682,True,3.4205128205128204,1.6532634032634048,True
com.netflix.mediaclient,12.675675675675675,4.489189189189189,False,0.6337675070028012,1.653319327731091,True,2.5802677942212826,1.724665257223395,True
com.netflix.mediaclient,7.7358974358974315,4.997435897435903,False,0.5355856795272853,1.6493917274939158,True,1.6827838827838828,1.5654107796964951,True
com.sec.android.app.sbrowser,2.177931034482758,4.586206896551716,False,None,None,False,6.249693314250664,5.326896340216723,False
com.sec.android.app.sbrowser,2.363636363636364,3.8857142857142857,False,11.086386066763424,2.307779390420901,False,4.413315217391303,3.8812499999999988,False
com.sec.android.app.sbrowser,0.932638888888889,4.168750000000008,False,None,None,False,3.796511627906977,4.974830732999704,False
com.sec.android.app.sbrowser,1.0868131868131867,4.158241758241753,False,7.190189520624303,2.7792084726867348,False,5.494126193441262,4.487235367372354,False
com.sec.android.app.sbrowser,1.8111111111111113,3.9571428571428533,False,None,None,False,2.66844070961718,5.6284780578898195,False
com.sec.android.app.shealth,3.175,2.896874999999997,False,11.391984536082473,2.332989690721652,True,5.864166666666666,2.1216919191919223,True
com.sec.android.app.shealth,0.20199999999999999,2.640000000000002,False,None,None,True,17.652222008464797,2.15474220854175,True
com.sec.android.app.shealth,0.20948275862068963,2.674137931034477,False,13.854222084751004,2.216300649551502,True,14.03452380952381,2.4619047619047625,True
com.sec.android.app.shealth,0.046052631578947366,2.660526315789471,False,None,None,True,14.04493927125506,2.3448582995951437,True
com.sec.android.app.shealth,0.0,2.5695652173913053,False,16.37699805068226,2.256153346328787,True,18.068185776487667,2.18801161103048,True
com.sec.app.samsungprintservice,4.458333333333333,2.904166666666667,False,7.169379310344828,2.335172413793103,False,8.097472527472531,4.679890109890114,False
com.sec.app.samsungprintservice,3.5034246575342465,3.189726027397268,False,4.545259973106232,4.499394890183777,False,6.681884057971007,5.016209000762776,False
com.sec.app.samsungprintservice,3.2666666666666675,3.009803921568628,False,7.159472934472936,4.1728632478632495,False,6.563986013986016,4.396293706293706,False
com.sec.app.samsungprintservice,5.806250000000002,3.0875000000000026,False,7.124502262443442,4.439366515837109,False,7.734544159544162,4.378347578347578,False
com.sec.app.samsungprintservice,5.4168831168831195,3.131168831168835,False,7.545679012345678,4.754700854700857,False,7.014410569105691,5.203475609756092,False
com.skype.raider,11.327450980392154,4.241176470588232,False,1.937254901960784,1.8732959850606945,False,5.5233785822021115,1.9415987933635002,False
com.skype.raider,7.482812499999999,3.989062500000003,False,4.876307692307693,1.6903589743589762,False,3.157460317460317,1.793015873015875,False
com.skype.raider,7.665625000000001,3.956249999999996,False,3.1360759493670884,1.680392405063293,False,4.209615384615384,1.6746153846153862,False
com.skype.raider,8.858,3.9040000000000004,False,8.450398517145505,1.698331788693236,False,2.9115257679614115,1.6795633409494815,False
com.skype.raider,7.9025974025974,4.049350649350653,False,4.964102564102564,1.6673604826546018,False,6.5476018099547515,1.696591251885371,False
com.snapchat.android,5.098901098901099,4.568131868131875,False,6.597323358841495,5.171507498026829,False,12.491342670852449,2.6618449649843057,False
com.snapchat.android,4.602597402597402,4.142857142857141,False,4.932458442694663,3.363480606590842,False,None,None,False
com.snapchat.android,2.1974025974025975,4.150649350649349,False,4.545,4.965913043478262,False,4.9508553515450044,5.6908016121809295,False
com.snapchat.android,3.635042735042735,4.212820512820507,False,10.372340425531917,5.778030181837584,False,None,None,False
com.snapchat.android,6.962162162162163,3.921621621621624,False,9.118076923076922,3.5070512820512842,False,4.84426157559798,5.685284178187412,False
com.spotify.music,3.2692307692307696,4.015384615384617,False,7.339239130434782,3.880434782608698,False,14.132900943396226,2.652181603773586,False
com.spotify.music,4.036440677966102,4.022881355932207,False,3.9338248847926263,4.036067588325654,False,5.166450471698113,2.3897995283018885,False
com.spotify.music,9.335064935064928,3.940259740259734,False,4.248782093482554,5.102337063857797,False,6.614807535917593,4.627500677690436,True
com.spotify.music,7.742857142857139,3.8844155844155868,False,4.580409654937956,5.0736019037905855,False,4.792763157894735,6.043192803437156,True
com.spotify.music,4.091025641025641,3.787179487179487,False,6.041651597347801,4.815777576853522,False,9.729824561403507,4.444331983805672,True
com.touchtype.swiftkey,1.7125,3.1890625000000035,False,7.470550556657007,4.542168674698797,False,15.806854345165236,3.677845777233781,False
com.touchtype.swiftkey,3.2441558441558445,2.871428571428571,False,4.60151098901099,3.8076923076923075,False,4.5799331103678895,4.221739130434782,False
com.touchtype.swiftkey,0.7120879120879119,3.035164835164837,False,5.098181818181818,4.153475935828875,False,2.497327455572393,4.787160765945714,False
com.touchtype.swiftkey,2.7758241758241757,2.9769230769230743,False,2.0238677410391777,4.697235343150877,False,4.9715151515151526,4.125811051693405,False
com.touchtype.swiftkey,0.1640625,2.876562499999997,False,2.387688035177042,4.883286276324914,False,6.06606334841629,4.589049773755657,False
com.truecaller,16.039473684210524,3.910526315789476,False,8.60925925925926,3.542671394799056,False,8.434907407407408,4.287407407407409,False
com.truecaller,3.384745762711864,4.033050847457619,False,8.290263157894737,2.8667763157894752,False,7.4209501274117216,2.419111758281763,False
com.truecaller,4.068571428571428,4.029523809523803,False,8.179791511541325,4.3627103499627715,False,10.274017094017093,4.234615384615382,False
com.truecaller,10.451948051948053,4.1714285714285735,False,11.763527851458885,3.433620689655174,False,5.732126010781668,4.977392183288414,False
com.truecaller,5.853125,3.7734374999999982,False,4.684662906258394,4.965780284716617,False,9.557350427350428,4.141474358974359,False
com.twitter.android,10.996875,5.045312500000002,False,None,None,False,13.167982456140354,3.8707336523126044,True
com.twitter.android,13.665217391304349,4.178260869565219,False,13.107070707070706,2.4812570145903496,True,14.262904730179878,3.1768021319120567,True
com.twitter.android,4.575000000000001,4.183333333333335,False,21.918125000000003,2.948958333333334,True,19.27853281853282,5.5013513513513495,True
com.twitter.android,6.552173913043479,4.252173913043479,False,22.22809829059829,4.114529914529917,True,15.917430473952216,5.502702702702701,True
com.twitter.android,5.469444444444445,4.222222222222222,False,14.808289124668434,3.70159151193634,True,19.23681942812378,5.510810810810809,True
com.viber.voip,8.123529411764705,4.756862745098036,False,8.904829469757528,1.8770050626165768,True,12.73758865248227,3.8232459996483223,True
com.viber.voip,2.7472527472527477,4.195604395604401,False,8.153112361526288,1.687515385967997,True,None,None,True
com.viber.voip,4.405555555555556,4.306666666666667,False,7.762634408602151,1.6930645161290323,True,8.617748917748917,1.6927489177489197,True
com.viber.voip,5.940625000000001,4.282812499999999,False,8.409605361131796,1.6898237776123126,True,None,None,True
com.viber.voip,4.235877862595417,4.829770992366421,False,6.906029411764705,1.6860294117647077,True,None,None,True
com.whatsapp,2.501298701298702,3.6909090909090922,False,7.954149085794655,5.477746522894201,False,9.653133903133904,5.707929724596394,False
com.whatsapp,3.6063492063492064,2.8904761904761878,False,7.732330316742081,4.959366515837105,False,10.34368191721133,4.661002178649236,False
com.whatsapp,0.3675324675324675,2.9649350649350605,False,5.479772079772079,4.859639126305791,False,5.949397962334054,5.141648656992899,False
com.whatsapp,3.3301587301587303,3.1238095238095274,False,6.801470588235294,4.690900735294114,False,3.895688111310098,5.483799421407904,False
com.whatsapp,0.08831168831168831,2.9220779220779183,False,8.12772311212814,5.776544622425625,False,3.257921714818266,5.682129543336446,False
com.xiaomi.midrop,0.1578125,2.4374999999999973,False,4.173462929475588,3.811829415310428,False,3.7644080416976915,4.021087118391665,False
com.xiaomi.midrop,0.06476190476190476,2.3085714285714323,False,0.08186150409530901,3.4929262844378295,False,0.42173076923076924,3.4577350427350453,False
com.xiaomi.midrop,2.272727272727273,2.2883116883116914,False,6.322435897435898,3.7080484330484325,False,3.7775,4.28384615384615,False
com.xiaomi.midrop,0.06944444444444445,2.365972222222225,False,0.10597014925373134,3.7788748564868007,False,3.9546533713200382,4.199145299145298,False
com.xiaomi.midrop,2.78125,2.2718750000000023,False,1.511669908307863,4.1696721311475375,False,0.4512396694214877,4.417537470233918,False
com.zhiliaoapp.musically,85.33457943925232,7.6897196261682215,False,2.940524193548387,1.9504838709677454,False,None,None,False
com.zhiliaoapp.musically,31.608000000000008,9.001999999999999,False,13.592073462142418,1.8629207346214196,False,None,None,False
com.zhiliaoapp.musically,16.479687499999997,8.2671875,False,2.4641604010025064,1.7654970760233883,False,None,None,False
com.zhiliaoapp.musically,11.413333333333323,8.766666666666671,False,11.14368811881188,1.967524752475249,False,None,None,False
com.zhiliaoapp.musically,19.55799999999999,8.708000000000004,False,15.153061224489797,1.980705009276436,False,None,None,False
org.telegram.messenger,38.93544303797469,3.716455696202535,False,31.844339622641513,3.12002434570907,False,48.7589924390451,5.277321383060069,False
org.telegram.messenger,41.181875000000005,3.480000000000011,False,22.957377049180334,2.7416950201051664,False,36.58202247191012,3.9736657303370793,False
org.telegram.messenger,37.47075471698115,3.4367924528301934,False,46.35774647887326,4.130559112249256,False,44.58309859154929,4.365770379854888,False
org.telegram.messenger,37.79743589743592,3.378205128205127,False,39.272619047619045,4.362582881253774,False,53.72491167638228,5.1886504151209945,False
org.telegram.messenger,41.67916666666665,2.8416666666666655,False,51.89272363150867,4.690829439252333,False,35.92738095238093,4.575678119349005,False
com.dropbox.android,22.34683544303797,5.2088607594936756,False,6.5896440129449845,1.896835670622081,True,None,None,False
com.dropbox.android,17.45641025641025,4.407692307692309,False,3.0128205128205128,1.6947128628946784,True,7.694086021505377,1.7276344086021505,True
com.dropbox.android,19.453846153846158,4.448717948717942,False,7.606060606060606,1.6911421911421927,True,8.678216019417476,1.7340169902912639,True
com.dropbox.android,25.652307692307694,4.369230769230764,False,4.852941176470588,1.6927649540829008,True,10.87206672845227,1.7632437442076012,True
com.dropbox.android,22.635294117647046,4.506722689075628,False,5.660194174757281,1.6940533980582542,True,7.536202707393266,1.7269177368969126,True
com.facebook.katana,36.621538461538464,4.321538461538459,False,66.94630570117953,6.428391218872877,False,35.848961713173225,7.383776768332246,False
com.facebook.katana,9.988235294117649,5.485714285714274,False,30.24594985535203,6.590315470450464,False,49.05170047277722,6.370306542626201,False
com.facebook.katana,7.350746268656718,4.610447761194033,False,40.96064441887233,7.127486437613025,False,32.40451127819544,7.510526315789464,False
com.facebook.katana,5.179104477611939,4.389552238805972,False,35.69497133301487,7.118478260869568,False,36.32233309143692,7.40094339622641,False
com.facebook.katana,7.827659574468086,4.576595744680855,False,42.33487179487183,7.055000000000005,False,34.916208517305236,7.386554621848731,False
com.facebook.lite,3.2272727272727275,2.3675324675324676,False,7.51124634858812,4.444320025965601,False,13.247890025575447,4.7968243819266885,False
com.facebook.lite,0.14835164835164835,2.768131868131872,False,12.423076923076923,4.273846153846156,False,10.235537190082647,4.898347107438011,False
com.facebook.lite,0.09711538461538462,2.5923076923076875,False,3.4830081185016377,4.270930066942034,False,8.2603320592451,4.574163879598658,False
com.facebook.lite,0.10625,2.612500000000001,False,6.128030303030302,4.387878787878782,False,11.27076923076923,4.510769230769235,False
com.facebook.lite,0.12948717948717947,2.5564102564102535,False,11.347874066861406,4.172281726712111,False,14.22266214177979,4.376206636500756,False
com.facebook.orca,18.797826086956537,4.88152173913043,False,26.20975609756098,4.004107830551989,False,24.095698924731195,6.412936827956998,False
com.facebook.orca,9.128205128205117,4.320512820512823,False,70.53838254172015,4.062130937098845,False,58.25181278839816,4.0888595912986165,False
com.facebook.orca,20.481081081081072,3.9864864864864864,False,31.34841897233202,5.269301712779978,False,54.700732600732614,4.225274725274726,False
com.facebook.orca,11.763636363636353,4.311688311688307,False,33.28772357723578,6.002601626016249,False,57.15451549110087,4.083981542518129,False
com.facebook.orca,12.15686274509803,4.221568627450979,False,21.776747311827958,5.869119623655912,False,24.85276268115942,6.007472826086951,False
com.imo.android.imoim,7.644615384615379,4.28153846153846,False,80.05707301173403,2.7359843546284237,True,19.05079365079366,4.844677871148466,True
com.imo.android.imoim,2.994936708860757,3.4094936708860764,False,72.17138200782269,2.7835723598435447,True,14.002710120068613,5.851234991423665,True
com.imo.android.imoim,2.4410256410256426,3.238461538461542,False,69.25196581196582,2.5576068376068366,True,12.151861471861476,6.076060606060611,True
com.imo.android.imoim,2.1628205128205145,3.7589743589743594,False,80.19833333333332,2.804150943396225,True,16.136043956043952,5.312967032967034,True
com.imo.android.imoim,2.609803921568628,3.6862745098039205,False,115.6902199904352,3.186788617886176,True,13.438004822182036,5.630440024110916,True
com.instagram.android,7.40641025641025,3.2961538461538487,False,58.96999999999999,4.581959459459459,True,18.83279569892474,6.070228494623659,True
com.instagram.android,3.42857142857143,3.5285714285714307,False,57.954720279720284,5.181748251748255,True,8.544285714285714,6.135333680917629,True
com.instagram.android,8.814285714285708,3.17792207792208,False,53.75921658986174,3.740322580645162,True,22.291183574879234,5.512439613526569,True
com.instagram.android,4.015625000000003,3.1703125000000028,False,47.1246007284954,5.861011487811718,True,16.93190855927701,5.977926634768743,True
com.instagram.android,8.332467532467525,3.3532467532467494,False,49.711864406779675,5.384836561743343,True,19.658723098995722,5.739340028694402,True
com.kiloo.subwaysurf,48.989873417721505,9.592405063291132,False,None,None,False,37.57499999999998,7.575925925925932,False
com.kiloo.subwaysurf,52.80784313725489,9.170588235294117,False,9.854728260869562,3.9203260869565257,False,22.559115813338373,4.494917815983374,False
com.kiloo.subwaysurf,50.50760869565217,9.684782608695638,False,26.61991168205539,6.361380971497386,False,36.73680555555553,6.916527777777778,False
com.kiloo.subwaysurf,51.82025316455695,9.703797468354427,False,24.183870967741942,4.119537431527695,False,43.47819425098141,9.250504410957726,False
com.kiloo.subwaysurf,45.54166666666665,9.788333333333327,False,29.43916666666666,6.62472222222222,False,29.762431264728985,5.7113118617439165,False
com.king.candycrushsaga,57.951612903225815,8.195698924731191,False,55.05203488372094,7.9593313953488405,False,51.31420576560161,9.313411856575769,False
com.king.candycrushsaga,54.19456521739127,7.806521739130443,False,36.43369868901785,7.980077369439071,False,41.13787234042557,9.053112687155222,False
com.king.candycrushsaga,41.75566037735853,7.860377358490575,False,35.693088235294134,7.500735294117643,False,40.91507936507934,8.825482093663897,False
com.king.candycrushsaga,40.11052631578946,7.244736842105259,False,34.6529411764706,7.609999999999997,False,29.841976127320958,6.323076923076924,False
com.king.candycrushsaga,37.11392405063292,7.743037974683545,False,34.690277777777766,6.979419191919191,False,42.87321867321865,9.341014391014383,False
com.lenovo.anyshare.gps,5.270992366412212,4.725190839694647,False,55.2802752293578,3.773012232415903,True,39.73381485849057,2.534021226415095,True
com.lenovo.anyshare.gps,16.495833333333334,3.8374999999999986,False,55.26282046073213,3.9173201153861736,True,41.71034482758621,3.4995160314579534,True
com.lenovo.anyshare.gps,6.79607843137255,4.38823529411765,False,65.33335301809593,4.5405238958957295,True,72.3133487492117,4.41717468993063,True
com.lenovo.anyshare.gps,5.5402597402597396,4.588311688311686,False,62.90430548849187,4.405078062127793,True,65.01058823529411,4.565344952795936,True
com.lenovo.anyshare.gps,0.9955555555555556,4.738888888888894,False,47.455441176470586,4.255588235294121,True,58.533928946815216,4.363128021862521,True
com.linkedin.android,1.0582417582417583,4.375824175824181,False,4.2352497096399535,1.9205342624854844,False,2.039837398373984,1.8342392566782835,False
com.linkedin.android,0.2263157894736842,4.006578947368421,False,3.3009901873327383,2.3407225691347007,False,2.544469223907226,2.39750223015165,False
com.linkedin.android,2.4615384615384617,3.8395604395604392,False,4.904402173913043,3.614673913043479,False,2.651883503401361,5.489255952380941,False
com.linkedin.android,3.159375,4.064062500000004,False,6.544700547893445,3.3054411486869437,False,4.592936137071651,3.663746105919005,True
com.linkedin.android,0.11222222222222222,3.9533333333333336,False,5.292065217391304,3.764728260869566,False,4.54522496371553,2.384847605224965,True
com.microsoft.office.excel,2.8228813559322035,2.477966101694915,False,4.504670329670332,3.9479395604395604,False,7.088736263736262,4.105082417582418,False
com.microsoft.office.excel,2.4766233766233774,1.990909090909088,False,4.635454545454541,4.388507718696396,False,6.19368131868132,3.752884615384616,False
com.microsoft.office.excel,2.117424242424243,2.036363636363634,False,4.953332316608206,4.042717706268116,False,5.383544303797466,4.324645417111489,False
com.microsoft.office.excel,4.040625000000002,1.9906249999999976,False,5.339285714285715,3.587745098039217,False,4.750358583594799,4.497108919766923,False
com.microsoft.office.excel,2.2075757575757584,2.036363636363634,False,4.30975274725275,3.6646978021978005,False,5.781757800432499,4.322304603027499,False
com.microsoft.office.powerpoint,2.609803921568628,2.323529411764705,False,5.2301630434782584,4.70887681159421,False,6.05969887955182,4.168137254901961,False
com.microsoft.office.powerpoint,3.078021978021979,2.0131868131868096,False,5.409283286994128,4.19762125424776,False,5.575339332011591,4.418621320725946,False
com.microsoft.office.powerpoint,2.2121212121212124,1.7606060606060618,False,5.39420466676834,4.15235626048498,False,6.0478021978021985,4.235164835164837,False
com.microsoft.office.powerpoint,3.1380000000000017,1.9579999999999986,False,5.886126373626373,3.642170329670331,False,4.307933662034963,4.569273868220529,False
com.microsoft.office.powerpoint,7.275000000000001,1.8041666666666671,False,4.477101200686105,4.414236706689535,False,6.035989010989011,3.8385989010989032,False
com.microsoft.office.word,2.193220338983052,2.511016949152542,False,10.521828776333482,4.675201703272082,False,5.205164835164835,4.434065934065934,False
com.microsoft.office.word,3.9627450980392154,2.019607843137257,False,17.350303030303078,8.81261363636363,False,5.326373626373626,4.110879120879124,False
com.microsoft.office.word,2.3128205128205135,2.0679487179487173,False,16.44479007309196,7.340736019037895,False,7.372,2.0966666666666667,False
com.microsoft.office.word,1.8294871794871796,2.066666666666666,False,10.611132075471692,6.7712349914236665,False,5.62252747252747,4.115164835164839,False
com.microsoft.office.word,2.082857142857144,2.0819047619047577,False,8.918141772838165,7.200047438330167,False,5.647586357197335,4.846643783371462,False
com.microsoft.skydrive,2.2736263736263753,4.004395604395598,False,10.40107962213225,4.766767881241568,False,18.13751993620414,3.9287878787878805,True
com.microsoft.skydrive,0.5246753246753246,3.929870129870131,False,6.83231884057971,1.9066666666666667,True,4.340350877192983,1.6449561403508781,True
com.microsoft.skydrive,0.7155555555555555,3.8711111111111083,False,11.94854312354312,3.2977855477855487,True,4.243640350877193,1.6449561403508781,True
com.microsoft.skydrive,0.488157894736842,3.926315789473685,False,4.853947368421053,1.6975877192982443,True,8.197807017543859,1.688706140350878,True
com.microsoft.skydrive,0.6080000000000001,3.888000000000001,False,4.985307017543859,1.6449561403508781,True,4.737820512820513,1.6496794871794882,True
com.miui.calculator,0.06470588235294117,2.119607843137253,False,0.8850610884857459,4.6175027767493555,False,2.1136130536130535,4.4510489510489535,False
com.miui.calculator,0.9520833333333335,2.0499999999999994,False,1.297744273024778,4.051870032725576,False,2.8809470958194603,3.9419903810580834,False
com.miui.calculator,0.0,1.9923076923076894,False,0.9641566533155319,4.1912772585669815,False,1.9261363636363638,4.266382575757574,False
com.miui.calculator,0.21948051948051947,1.990909090909088,False,2.1112876254180604,4.141555183946492,False,1.959493670886076,4.406329113924048,False
com.miui.calculator,2.1140625,1.9843749999999978,False,5.0025641025641026,3.6670715249662633,False,1.5640135577372603,4.414235624123419,False
com.miui.player,3.0935064935064935,3.124675324675329,False,None,None,False,None,None,False
com.miui.player,0.0,2.8125,False,2.265203616922975,1.72283017622599,True,1.9739791073124406,1.7424264007597356,True
com.miui.player,0.02275862068965517,2.9868965517241453,False,0.42593922190682926,4.194857238270163,True,1.9945725760183592,1.930900745840506,True
com.miui.player,0.13428571428571429,2.9304761904761927,False,0.21357599606492866,4.015297589768818,True,2.8854347826086957,4.076956521739133,True
com.miui.player,0.10305343511450382,2.9083969465648853,False,2.4794117647058824,4.1105042016806745,True,3.2674418604651163,3.779732116573448,True
com.miui.videoplayer,2.2666666666666666,2.830769230769231,False,8.801601731601732,5.144502164502164,False,9.87074881805704,5.717218240048805,False
com.miui.videoplayer,0.0,2.4374999999999973,False,4.0779292761334665,5.546380667331777,False,5.743366778149387,5.122742474916392,False
com.miui.videoplayer,2.2046875000000004,2.4624999999999972,False,4.5903296703296705,4.952307692307691,False,4.664764492753624,5.678079710144924,False
com.miui.videoplayer,0.4825757575757576,2.595454545454539,False,2.2684109589041093,5.872885844748861,False,6.205631868131868,4.7700549450549445,False
com.miui.videoplayer,30.023287671232875,2.6623287671232876,False,5.572686733556298,4.821293199554068,False,3.452812415288696,5.992355651938185,False
com.mxtech.videoplayer.ad,4.277966101694914,6.1661016949152465,False,51.269923469387756,2.171428571428574,True,21.154199360650974,2.456320836966001,True
com.mxtech.videoplayer.ad,8.19220779220779,5.6077922077922,False,62.86196189131969,2.178560338743827,True,43.20596153846154,1.9875000000000016,True
com.mxtech.videoplayer.ad,7.119491525423728,5.676271186440676,False,68.83870967741936,2.1351186853317086,True,46.59016393442623,1.9828499369482961,True
com.mxtech.videoplayer.ad,6.245054945054944,6.01538461538462,False,76.0,2.2602424242424224,True,74.46153846153847,2.444025594658505,True
com.mxtech.videoplayer.ad,4.488461538461537,6.050961538461537,False,22.99288194444444,3.157465277777777,True,40.657534246575345,2.4751712328767104,True
com.netflix.mediaclient,3.365517241379311,5.084137931034484,False,2.775527192008879,1.7613207547169822,True,0.8180991593755361,1.8546663235546443,True
com.netflix.mediaclient,5.07457627118644,4.6271186440678065,False,0.5289836942455354,1.6604779570356276,True,1.5964743589743589,1.6649358974358948,True
com.netflix.mediaclient,6.934375,4.835937499999995,False,0.36783804430863254,1.655462184873947,True,0.9544554455445545,1.6331745832811149,True
com.netflix.mediaclient,3.6448717948717935,5.117948717948719,False,0.5904400469865365,1.7238637390440048,True,1.625990675990676,1.5987179487179504,True
com.netflix.mediaclient,14.5625,4.445833333333334,False,0.6256391164060561,1.6329610325142734,True,0.8340336134453782,1.642400438436244,True
com.sec.android.app.sbrowser,2.3666666666666663,4.353787878787879,False,8.091521739130435,3.888043478260872,False,9.663440860215053,4.078653922739948,False
com.sec.android.app.sbrowser,1.6483516483516483,4.096703296703295,False,2.7019972451790633,4.681336088154276,False,5.837997097242381,2.2910014513788113,False
com.sec.android.app.sbrowser,1.1441558441558444,3.8922077922077922,False,4.820707070707071,4.263383838383838,False,2.2951254366465546,5.927903038001478,False
com.sec.android.app.sbrowser,1.2781250000000002,3.7437500000000004,False,8.165997770345596,2.7965997770345608,False,6.374966261808368,5.108771929824563,False
com.sec.android.app.sbrowser,1.0945054945054946,3.8890109890109925,False,4.82506623491316,4.620694730644688,False,3.692537533117456,4.79162496320283,False
com.sec.android.app.shealth,2.6384615384615384,2.93333333333333,False,12.416894859209506,2.1146732110565774,True,11.957243916242222,2.271929824561407,True
com.sec.android.app.shealth,0.0,2.661038961038958,False,9.925,2.135833333333334,True,None,None,True
com.sec.android.app.shealth,0.17763157894736842,2.6592105263157864,False,25.661001712328762,2.7191780821917826,True,7.72656629431763,1.8814958717824202,True
com.sec.android.app.shealth,0.03666666666666667,2.6666666666666625,False,20.65629290617849,2.327688787185355,True,15.759183673469389,2.1068645640074237,True
com.sec.android.app.shealth,0.17894736842105263,2.6592105263157864,False,4.2785087719298245,1.7533991228070187,True,15.393055555555556,2.7180555555555563,True
com.sec.app.samsungprintservice,3.361538461538462,3.341758241758242,False,7.618972090895223,4.6449290834223,False,9.196565934065937,4.272939560439563,False
com.sec.app.samsungprintservice,3.020338983050847,3.1677966101694985,False,5.960325900514575,4.596861063464841,False,13.67080291970803,5.026930464848255,False
com.sec.app.samsungprintservice,5.811538461538466,3.1153846153846203,False,5.676990846681922,4.6975972540045765,False,8.732669683257921,4.665837104072398,False
com.sec.app.samsungprintservice,3.2297297297297285,2.878378378378378,False,7.264624881291546,4.642212725546061,False,7.362805429864258,4.665837104072398,False
com.sec.app.samsungprintservice,3.5609375000000023,3.056250000000003,False,7.264615384615386,4.408484162895931,False,6.669768934531451,3.9370346598202826,False
com.skype.raider,7.6499999999999915,4.413461538461546,False,1.5205077086656034,1.8774056353003759,False,2.3896647015475314,1.8628224023581457,False
com.skype.raider,8.641176470588235,3.956862745098042,False,2.5708548268238762,1.68069270449521,False,2.6654226961157654,1.6805534399593824,False
com.skype.raider,8.1046875,3.9578124999999957,False,2.0714615892581993,1.6848338102575364,False,10.082500000000001,1.6449999999999998,False
com.skype.raider,7.6953125000000036,4.015625000000004,False,6.960051282051282,1.695256410256412,False,3.113354297693921,1.6969252271139048,False
com.skype.raider,6.1686440677966035,4.088135593220335,False,2.767759764185704,1.6789977892409729,False,3.2736694677871148,1.7037348272642368,False
com.snapchat.android,7.47076923076923,4.4353846153846135,False,10.303012345679013,2.554185185185188,False,11.108100037327361,3.206009705113851,False
com.snapchat.android,2.934722222222222,4.308333333333327,False,5.489056576261301,3.4060513269174653,False,18.81684210526316,3.0236842105263158,False
com.snapchat.android,2.408974358974359,4.117948717948717,False,5.500156249999999,5.538541666666666,False,11.532866741321385,2.5370660694288922,False
com.snapchat.android,4.238961038961039,4.2974025974026,False,4.019340964732349,5.112830013895323,False,5.839801631738919,5.41474430757745,False
com.snapchat.android,3.7548076923076907,4.187499999999994,False,11.937261320240044,2.4949809056192045,False,12.718709677419355,6.073671274961583,False
com.spotify.music,3.633333333333334,3.9568627450980434,False,6.945947802197801,3.852980769230772,False,7.677230572433642,4.723888711224824,False
com.spotify.music,6.052747252747251,3.903296703296706,False,5.48168956043956,3.5267857142857144,False,8.768926886792453,2.442924528301888,False
com.spotify.music,5.740624999999998,3.995312500000002,False,7.627710843373493,4.655802958670122,False,8.834285714285715,4.80802197802198,False
com.spotify.music,5.0051948051948045,3.797402597402597,False,7.022937318895835,5.035488790605463,False,4.177787307032589,5.653962264150948,False
com.spotify.music,6.128205128205124,3.8833333333333324,False,4.6438804554079685,5.550047438330162,False,5.219047619047618,5.2721066907775835,False
com.touchtype.swiftkey,2.6525641025641025,3.0871794871794886,False,6.195775507091657,4.534878755528444,False,8.29277108433735,4.746133902699406,False
com.touchtype.swiftkey,1.7507692307692309,2.917692307692308,False,2.2551630434782606,4.589538043478262,False,3.0438832252085266,4.349752857584178,False
com.touchtype.swiftkey,0.6835164835164834,2.918681318681316,False,5.954033771106941,4.507285803627267,False,5.402573529411765,4.349080882352945,False
com.touchtype.swiftkey,2.3990384615384617,2.894230769230769,False,4.076543209876543,4.4670465337132,False,4.17861761426979,4.351727982162766,False
com.touchtype.swiftkey,0.22692307692307695,2.8320512820512818,False,5.8161764705882355,4.083484162895932,False,2.6529274004683843,5.046321807411487,False
com.truecaller,22.091666666666665,3.6250000000000004,False,10.216344204901418,2.5398562741846344,False,10.335921052631578,3.1837500000000025,False
com.truecaller,4.1990384615384615,4.0144230769230695,False,7.0638297872340425,3.207013396375098,False,4.170597127739985,4.332010582010581,False
com.truecaller,4.587179487179488,3.8602564102564108,False,None,None,False,9.579940431868948,4.717274758004466,False
com.truecaller,7.733333333333334,3.806410256410256,False,6.417452830188679,4.774932614555254,False,6.785899322932,4.432322637621432,False
com.truecaller,17.04594594594595,3.6702702702702683,False,9.14941176470588,4.205510052122114,False,6.337783149789596,5.8147998925597495,False
com.twitter.android,4.464122137404578,4.726717557251898,False,10.388664421997756,2.65375982042649,True,None,None,False
com.twitter.android,1.0495726495726496,4.441025641025642,False,22.321875,2.9572916666666673,True,14.227433628318586,3.052965543212202,True
com.twitter.android,3.561111111111111,4.3388888888888895,False,11.482380952380952,4.70555555555556,True,25.24875,3.197916666666668,True
com.twitter.android,3.4467532467532465,4.433766233766233,False,10.036538461538461,4.740842490842493,True,16.158758888170656,4.927537168713637,True
com.twitter.android,5.022222222222223,4.183333333333334,False,19.65945945945946,5.293243243243247,True,18.081081081081084,5.486486486486484,True
com.viber.voip,7.859375,4.882812500000001,False,None,None,True,7.03440170940171,1.861657169990506,True
com.viber.voip,11.497297297297296,4.737837837837837,False,None,None,True,3.4047720797720795,1.6405033238366586,True
com.viber.voip,5.522077922077916,5.081818181818179,False,12.918333333333335,1.6928921568627469,True,8.176344086021505,1.7013978494623656,True
com.viber.voip,6.541558441558438,4.94675324675324,False,10.325451092117758,1.7538580246913567,True,6.034883720930233,1.696787025703791,True
com.viber.voip,6.483116883116879,4.953246753246747,False,1.4450867052023122,1.6570097489431421,True,5.662472963229993,1.7131146359048264,True
com.whatsapp,2.1714285714285717,3.476623376623381,False,7.736372269705603,5.245204178537515,False,8.983618233618234,5.633238366571701,False
com.whatsapp,3.986,2.684000000000002,False,4.192979797979797,6.056363636363649,False,3.373219814241486,6.2677078726227275,False
com.whatsapp,2.511450381679388,2.9152671755725255,False,11.370474967907574,3.8572528883183574,False,7.855664488017429,4.490522875816997,False
com.whatsapp,0.1844155844155844,2.732467532467536,False,14.091333333333335,1.8573333333333335,True,4.811241217798595,5.55183220829315,False
com.whatsapp,2.8192307692307694,2.7243589743589793,False,4.837357549857549,5.33404558404558,True,7.55449080110097,5.942372881355933,False
com.xiaomi.midrop,0.159375,2.4374999999999973,False,1.941139240506329,3.7630198915009068,False,4.492857142857143,4.329120879120882,False
com.xiaomi.midrop,0.19999999999999998,2.211764705882355,False,9.236774193548388,1.5651612903225807,False,None,None,True
com.xiaomi.midrop,2.4545454545454546,2.2922077922077952,False,2.928660436137072,4.1034267912772595,False,7.008771929824562,1.5553728070175448,True
com.xiaomi.midrop,0.06666666666666667,2.211764705882355,False,0.465359477124183,3.603485838779959,False,13.1625,1.4616666666666664,True
com.xiaomi.midrop,0.08831168831168831,2.2753246753246783,False,3.1058404558404558,4.186799620132953,False,12.383114446529081,1.7045028142589134,True
com.zhiliaoapp.musically,88.58955223880594,7.665671641791052,False,None,None,False,None,None,False
com.zhiliaoapp.musically,21.102884615384628,9.097115384615376,False,None,None,False,None,None,False
com.zhiliaoapp.musically,21.796825396825394,8.214285714285717,False,None,None,False,9.045967741935483,1.8129233870967714,False
com.zhiliaoapp.musically,12.790598290598297,8.636752136752126,False,3.3533576790424022,1.7619649016027565,False,None,None,False
com.zhiliaoapp.musically,26.490000000000006,8.398000000000001,False,None,None,False,None,None,False
org.telegram.messenger,41.96416666666666,3.7608333333333257,False,39.12452247191012,4.024719101123596,False,42.24773876404496,4.166896067415733,False
org.telegram.messenger,37.82282608695655,3.3597826086956526,False,33.00570247933887,4.249071837253657,False,48.81603941891088,4.769475830430721,False
org.telegram.messenger,36.62500000000003,3.317391304347828,False,59.191503267973815,4.933412291090921,False,34.69069767441861,3.3577221228384033,False
org.telegram.messenger,37.66916666666671,3.4008333333333383,False,40.742105263157875,3.7513495276653175,False,34.28360166964817,3.440250447227191,False
org.telegram.messenger,42.60000000000001,3.1708860759493693,False,48.6904761904762,4.386309523809528,False,44.616047460539015,5.072941050144948,False
